4.5234e-24,0
2.1872e-24,0.8
1.2573e-23,1.6
1.0532e-23,2.4
1.4548e-24,3.2
9.0552e-25,4
3.9438e-24,4.8
2.7699e-23,5.6
2.8885e-23,6.4
1.8585e-24,7.2
6.0407e-24,8
2.7342e-23,8.8
1.9058e-22,9.6
2.9317e-22,10.4
7.3403e-23,11.2
3.0429e-23,12
2.3407e-22,12.8
2.0501e-22,13.6
4.2522e-23,14.4
1.3511e-24,15.2
1.7117e-24,16
2.3814e-24,16.8
1.7497e-23,17.6
6.3678e-24,18.4
4.6635e-24,19.2
4.3038e-24,20
9.046e-24,20.8
2.8388e-23,21.6
1.3651e-23,22.4
5.3918e-24,23.2
4.0514e-25,24
4.5968e-24,24.8
4.09e-24,25.6
6.2757e-24,26.4
6.919e-25,27.2
1.2117e-24,28
1.8417e-24,28.8
4.7574e-24,29.6
7.9097e-24,30.4
5.8285e-24,31.2
1.0569e-24,32
1.0402e-23,32.8
1.0583e-25,33.6
9.9489e-25,34.4
1.0687e-23,35.2
2.7953e-23,36
8.3411e-25,36.8
9.547e-25,37.6
3.4575e-25,38.4
5.2917e-24,39.2
9.2081e-24,40
3.5478e-24,40.8
2.2934e-24,41.6
8.0934e-25,42.4
1.545e-24,43.2
2.5111e-24,44
1.863e-25,44.8
5.7957e-24,45.6
4.669e-25,46.4
9.1057e-25,47.2
1.9374e-24,48
3.2521e-24,48.8
5.0432e-24,49.6
6.5875e-24,50.4
1.7581e-23,51.2
1.8809e-23,52
1.5886e-23,52.8
8.1939e-24,53.6
2.3834e-24,54.4
6.6341e-24,55.2
8.9313e-24,56
4.0183e-24,56.8
2.2002e-24,57.6
9.2823e-25,58.4
2.4403e-24,59.2
1.5764e-24,60
1.116e-23,60.8
1.1219e-23,61.6
2.0942e-25,62.4
4.7238e-24,63.2
1.6099e-24,64
2.0516e-26,64.8
1.5365e-24,65.6
5.7553e-26,66.4
5.8593e-24,67.2
1.9529e-23,68
1.0659e-23,68.8
2.3673e-24,69.6
1.0807e-23,70.4
6.0936e-24,71.2
1.0353e-23,72
2.6096e-24,72.8
4.0558e-24,73.6
1.2847e-23,74.4
1.4746e-23,75.2
1.4069e-23,76
1.0284e-24,76.8
2.4685e-24,77.6
4.8529e-24,78.4
2.936e-24,79.2
3.6802e-24,80
2.452e-24,80.8
1.5842e-24,81.6
5.1199e-24,82.4
5.8929e-25,83.2
1.3442e-24,84
1.5088e-24,84.8
3.8907e-24,85.6
1.3521e-24,86.4
8.0239e-25,87.2
3.4082e-25,88
5.654e-25,88.8
7.4352e-26,89.6
2.534e-24,90.4
4.565e-24,91.2
3.6475e-24,92
6.53e-24,92.8
3.5006e-24,93.6
7.0126e-25,94.4
8.9977e-24,95.2
5.3872e-24,96
2.9901e-24,96.8
8.1557e-27,97.6
2.496e-24,98.4
4.5799e-25,99.2
2.7342e-24,100
2.7258e-24,100.8
9.9278e-25,101.6
1.3599e-24,102.4
7.4233e-25,103.2
1.3752e-24,104
1.3773e-24,104.8
1.4064e-24,105.6
6.7318e-26,106.4
2.8085e-25,107.2
1.4567e-24,108
3.5994e-25,108.8
3.1625e-24,109.6
1.505e-24,110.4
4.8232e-24,111.2
1.0462e-23,112
5.786e-24,112.8
1.0444e-24,113.6
3.8928e-24,114.4
2.7268e-24,115.2
7.8021e-25,116
2.0824e-25,116.8
3.893e-24,117.6
7.4151e-25,118.4
6.2605e-25,119.2
6.6204e-24,120
8.5415e-25,120.8
2.3926e-24,121.6
1.1397e-24,122.4
4.2072e-24,123.2
1.5204e-24,124
4.8689e-24,124.8
6.6972e-24,125.6
1.9667e-24,126.4
2.8949e-24,127.2
7.1916e-24,128
1.9161e-23,128.8
1.0701e-23,129.6
1.2265e-24,130.4
1.8597e-24,131.2
2.6011e-24,132
1.9698e-24,132.8
3.2579e-24,133.6
2.2748e-24,134.4
1.7296e-24,135.2
1.4922e-25,136
2.3241e-25,136.8
1.2955e-24,137.6
3.9832e-24,138.4
5.4736e-24,139.2
1.2448e-24,140
4.4151e-24,140.8
2.3334e-24,141.6
4.5159e-25,142.4
6.5712e-25,143.2
2.066e-25,144
5.6014e-25,144.8
9.5714e-25,145.6
1.0287e-24,146.4
9.5012e-25,147.2
3.1626e-26,148
3.994e-26,148.8
5.3831e-25,149.6
4.5105e-24,150.4
9.8421e-24,151.2
5.0426e-24,152
5.2465e-24,152.8
3.4221e-24,153.6
1.1038e-23,154.4
2.8034e-24,155.2
5.9677e-25,156
2.0487e-24,156.8
5.053e-24,157.6
2.3875e-24,158.4
1.5883e-24,159.2
1.1982e-25,160
3.8267e-24,160.8
2.5191e-24,161.6
1.7661e-24,162.4
2.9725e-24,163.2
1.3908e-25,164
1.3901e-24,164.8
1.6418e-24,165.6
9.8914e-25,166.4
1.0722e-24,167.2
4.1971e-24,168
2.5926e-23,168.8
2.5024e-23,169.6
1.5154e-23,170.4
1.2803e-23,171.2
1.8331e-23,172
7.5352e-24,172.8
2.0307e-25,173.6
1.2557e-24,174.4
1.0439e-23,175.2
1.2729e-24,176
1.0089e-25,176.8
6.3662e-25,177.6
1.5199e-24,178.4
7.1893e-25,179.2
4.6951e-25,180
5.9557e-24,180.8
1.3124e-24,181.6
2.6058e-25,182.4
2.1863e-24,183.2
4.9979e-24,184
1.4394e-25,184.8
1.7022e-24,185.6
3.2695e-24,186.4
3.8433e-24,187.2
4.4884e-24,188
1.3606e-24,188.8
1.0243e-24,189.6
8.0642e-24,190.4
4.6527e-24,191.2
5.4634e-25,192
3.072e-24,192.8
9.4115e-25,193.6
2.8656e-24,194.4
5.3777e-24,195.2
1.8619e-24,196
5.8075e-24,196.8
3.3922e-24,197.6
3.4595e-24,198.4
3.738e-24,199.2
4.0064e-25,200
4.5651e-24,200.8
1.8601e-23,201.6
9.3346e-24,202.4
5.2268e-24,203.2
1.347e-23,204
2.6527e-24,204.8
1.2184e-24,205.6
5.1758e-24,206.4
5.4715e-24,207.2
1.5969e-23,208
1.0544e-23,208.8
6.2552e-24,209.6
2.3547e-25,210.4
3.7852e-26,211.2
9.2618e-25,212
5.786e-25,212.8
1.5126e-24,213.6
4.1971e-25,214.4
3.8889e-25,215.2
6.8264e-25,216
8.3027e-25,216.8
3.6113e-25,217.6
3.4282e-25,218.4
1.5601e-24,219.2
4.686e-24,220
2.8379e-24,220.8
1.9405e-24,221.6
8.6487e-26,222.4
7.8561e-25,223.2
5.78e-24,224
2.0346e-24,224.8
6.7641e-25,225.6
9.4062e-25,226.4
1.2748e-25,227.2
5.7475e-24,228
8.8835e-24,228.8
5.4031e-24,229.6
2.1039e-24,230.4
1.1991e-24,231.2
1.9407e-23,232
3.5258e-23,232.8
7.4299e-24,233.6
4.0532e-24,234.4
2.208e-24,235.2
1.283e-23,236
6.5423e-24,236.8
2.1603e-25,237.6
6.8071e-24,238.4
8.4198e-24,239.2
3.8618e-24,240
1.058e-23,240.8
5.2956e-23,241.6
8.2597e-23,242.4
1.2257e-22,243.2
1.5748e-22,244
1.6237e-22,244.8
1.4056e-22,245.6
8.2453e-23,246.4
3.1999e-23,247.2
2.3347e-23,248
2.0399e-23,248.8
4.3778e-24,249.6
1.466e-23,250.4
9.0078e-24,251.2
5.2388e-24,252
5.2275e-24,252.8
4.4051e-24,253.6
3.1387e-24,254.4
4.6692e-25,255.2
3.2554e-24,256
5.6856e-24,256.8
5.8286e-24,257.6
1.8308e-24,258.4
1.442e-25,259.2
4.2538e-24,260
5.1307e-24,260.8
5.1696e-24,261.6
5.1099e-25,262.4
1.8891e-24,263.2
2.4757e-24,264
2.1062e-23,264.8
4.0347e-23,265.6
6.3544e-23,266.4
9.1889e-23,267.2
1.1931e-22,268
7.2073e-23,268.8
3.7348e-23,269.6
2.5609e-23,270.4
2.4506e-24,271.2
4.3874e-24,272
4.0735e-24,272.8
1.7817e-23,273.6
2.3301e-23,274.4
2.5557e-23,275.2
2.9047e-22,276
7.5164e-22,276.8
7.222e-22,277.6
1.7108e-22,278.4
3.1269e-23,279.2
6.5807e-23,280
7.6918e-24,280.8
1.6114e-23,281.6
7.6581e-24,282.4
8.2404e-24,283.2
1.0075e-23,284
1.6351e-24,284.8
5.2312e-25,285.6
1.0057e-23,286.4
4.7144e-24,287.2
8.5827e-24,288
3.956e-24,288.8
8.2953e-24,289.6
3.5173e-24,290.4
2.9804e-24,291.2
9.1403e-24,292
1.0512e-23,292.8
1.3713e-24,293.6
5.0833e-23,294.4
1.5318e-23,295.2
3.8438e-24,296
5.6429e-24,296.8
2.7599e-24,297.6
2.5065e-24,298.4
4.0296e-24,299.2
9.8318e-25,300
1.6789e-26,300.8
2.9013e-25,301.6
8.207e-24,302.4
4.1289e-24,303.2
2.1568e-24,304
9.4933e-24,304.8
2.3275e-25,305.6
2.1264e-24,306.4
4.9196e-24,307.2
7.3856e-24,308
3.0714e-24,308.8
3.5538e-24,309.6
1.7011e-24,310.4
4.7611e-24,311.2
1.0411e-24,312
4.2654e-24,312.8
3.0737e-24,313.6
3.9131e-24,314.4
4.05e-24,315.2
8.4527e-24,316
1.0874e-23,316.8
1.905e-23,317.6
1.8422e-23,318.4
9.5095e-24,319.2
4.3856e-25,320
1.2056e-24,320.8
1.4547e-25,321.6
3.8484e-24,322.4
3.6382e-24,323.2
2.1348e-24,324
1.6128e-24,324.8
1.0164e-25,325.6
7.195e-26,326.4
3.6889e-24,327.2
1.5696e-24,328
1.7095e-24,328.8
3.3078e-24,329.6
2.1816e-24,330.4
5.7784e-24,331.2
2.4842e-24,332
2.1388e-23,332.8
5.2692e-24,333.6
1.7938e-22,334.4
3.2661e-22,335.2
1.48e-22,336
6.3554e-24,336.8
3.3991e-23,337.6
1.1602e-24,338.4
6.4241e-24,339.2
1.2603e-24,340
4.8527e-24,340.8
7.9424e-25,341.6
4.3244e-25,342.4
7.1817e-25,343.2
3.4012e-25,344
3.8153e-24,344.8
3.1886e-24,345.6
1.4171e-24,346.4
1.2198e-24,347.2
2.4463e-24,348
8.3926e-25,348.8
7.6798e-26,349.6
2.9454e-24,350.4
4.2775e-24,351.2
7.1126e-24,352
2.059e-24,352.8
1.1914e-24,353.6
1.4394e-24,354.4
1.7323e-24,355.2
1.0928e-24,356
4.9072e-24,356.8
3.2298e-24,357.6
1.2225e-24,358.4
4.8107e-24,359.2
1.7119e-24,360
2.7271e-25,360.8
1.2541e-24,361.6
2.2419e-24,362.4
3.3595e-24,363.2
5.9922e-24,364
1.786e-24,364.8
3.3401e-24,365.6
3.5942e-24,366.4
3.6708e-24,367.2
1.6347e-24,368
3.1572e-25,368.8
5.9799e-25,369.6
1.6832e-24,370.4
1.362e-24,371.2
1.7937e-24,372
4.8716e-25,372.8
9.3903e-24,373.6
1.2413e-24,374.4
2.4524e-23,375.2
8.7976e-24,376
3.5358e-24,376.8
2.1099e-24,377.6
5.1201e-25,378.4
3.719e-24,379.2
3.5207e-25,380
1.1181e-24,380.8
8.3958e-25,381.6
1.4731e-25,382.4
8.1255e-25,383.2
2.3889e-24,384
7.6398e-25,384.8
1.3588e-24,385.6
3.5904e-25,386.4
3.3275e-25,387.2
6.3098e-26,388
7.8784e-26,388.8
5.5583e-26,389.6
1.7473e-24,390.4
2.0324e-24,391.2
2.8965e-25,392
3.8502e-24,392.8
2.472e-24,393.6
8.4098e-25,394.4
7.8001e-25,395.2
3.0298e-24,396
3.6366e-24,396.8
2.1958e-24,397.6
8.0473e-24,398.4
7.8544e-25,399.2
4.8034e-25,400
1.0363e-24,400.8
9.3856e-25,401.6
1.3194e-24,402.4
1.7495e-24,403.2
2.144e-24,404
7.1122e-25,404.8
6.2836e-25,405.6
1.579e-24,406.4
7.7182e-25,407.2
3.3121e-24,408
1.4759e-24,408.8
1.5827e-24,409.6
2.9748e-24,410.4
4.3401e-24,411.2
1.2222e-24,412
3.7813e-25,412.8
1.3883e-24,413.6
5.1283e-25,414.4
3.9131e-24,415.2
2.248e-24,416
3.059e-24,416.8
7.8775e-24,417.6
4.0483e-24,418.4
1.9397e-24,419.2
2.0467e-24,420
6.7468e-24,420.8
1.6528e-24,421.6
8.566e-25,422.4
2.2404e-24,423.2
4.4201e-24,424
1.7482e-23,424.8
1.8625e-24,425.6
5.0348e-24,426.4
9.1312e-25,427.2
3.258e-24,428
1.8051e-23,428.8
1.0314e-24,429.6
2.2038e-24,430.4
4.4863e-24,431.2
3.9501e-24,432
6.7349e-25,432.8
1.7654e-24,433.6
1.5701e-23,434.4
8.2869e-24,435.2
4.9528e-23,436
2.7665e-23,436.8
1.098e-22,437.6
7.012e-23,438.4
7.2472e-23,439.2
3.4144e-23,440
1.7954e-22,440.8
5.6365e-22,441.6
5.7467e-22,442.4
1.7994e-22,443.2
3.3301e-23,444
2.3888e-23,444.8
9.589e-24,445.6
5.2188e-24,446.4
1.038e-23,447.2
5.9674e-24,448
1.6776e-23,448.8
6.6127e-24,449.6
1.2754e-25,450.4
1.4339e-25,451.2
1.5356e-24,452
8.4602e-24,452.8
3.0917e-24,453.6
4.8791e-24,454.4
3.3206e-24,455.2
3.4523e-24,456
3.2423e-24,456.8
6.8385e-24,457.6
1.4693e-23,458.4
1.528e-23,459.2
2.3384e-23,460
6.8197e-23,460.8
3.0096e-24,461.6
7.0849e-24,462.4
1.3449e-23,463.2
4.8383e-24,464
1.509e-23,464.8
1.9988e-24,465.6
9.439e-24,466.4
7.6566e-24,467.2
1.4037e-23,468
5.2674e-24,468.8
1.5843e-23,469.6
1.4987e-24,470.4
1.012e-23,471.2
3.6484e-24,472
1.3342e-23,472.8
6.4113e-25,473.6
1.1822e-23,474.4
8.5867e-25,475.2
1.4688e-23,476
2.5593e-24,476.8
3.1659e-23,477.6
3.4667e-25,478.4
2.1286e-23,479.2
1.3515e-24,480
3.7272e-23,480.8
4.3248e-24,481.6
2.7524e-23,482.4
8.5579e-25,483.2
4.1953e-23,484
2.5991e-24,484.8
4.5108e-23,485.6
1.1139e-24,486.4
5.3134e-23,487.2
7.1569e-24,488
9.3408e-23,488.8
4.3388e-24,489.6
1.1891e-22,490.4
2.4563e-24,491.2
1.0967e-22,492
2.1061e-24,492.8
1.6178e-22,493.6
4.5522e-24,494.4
4.0567e-22,495.2
3.7914e-24,496
8.9449e-22,496.8
4.7048e-23,497.6
3.2482e-21,498.4
3.0336e-22,499.2
5e+06,500
2.8188e-22,500.8
3.1378e-21,501.6
4.6268e-23,502.4
7.6241e-22,503.2
2.6322e-24,504
3.5595e-22,504.8
4.4117e-24,505.6
1.408e-22,506.4
2.9097e-24,507.2
1.0003e-22,508
2.8444e-24,508.8
1.0902e-22,509.6
8.5898e-24,510.4
5.5993e-23,511.2
6.4321e-24,512
2.9734e-23,512.8
3.4589e-24,513.6
3.0104e-23,514.4
1.2775e-24,515.2
2.1872e-23,516
2.0275e-25,516.8
3.2345e-23,517.6
6.2399e-24,518.4
7.1818e-24,519.2
8.3748e-24,520
3.8433e-23,520.8
3.6556e-23,521.6
2.8827e-23,522.4
6.5878e-23,523.2
5.2249e-24,524
5.1404e-24,524.8
7.2492e-24,525.6
1.9074e-23,526.4
5.7782e-23,527.2
2.5549e-24,528
5.8571e-23,528.8
3.4186e-24,529.6
5.5991e-24,530.4
5.1447e-24,531.2
1.4745e-23,532
1.0053e-23,532.8
2.9559e-23,533.6
2.9924e-24,534.4
1.5643e-23,535.2
1.0346e-25,536
1.5521e-23,536.8
2.8988e-25,537.6
1.436e-23,538.4
3.3224e-24,539.2
1.5213e-25,540
5.5687e-25,540.8
1.5509e-24,541.6
3.7065e-25,542.4
7.8285e-24,543.2
4.0383e-25,544
1.1183e-23,544.8
7.2871e-25,545.6
3.0799e-24,546.4
9.746e-25,547.2
3.3588e-24,548
7.1648e-25,548.8
3.431e-25,549.6
1.2323e-24,550.4
8.5861e-24,551.2
5.6074e-25,552
7.6765e-24,552.8
6.7912e-25,553.6
3.2911e-24,554.4
2.0881e-25,555.2
1.5632e-25,556
6.0636e-24,556.8
1.142e-24,557.6
1.7721e-24,558.4
4.7369e-25,559.2
6.8875e-24,560
1.9867e-23,560.8
3.857e-23,561.6
9.7439e-23,562.4
1.1926e-23,563.2
2.8813e-23,564
2.9262e-24,564.8
5.7519e-24,565.6
2.2693e-24,566.4
8.9831e-25,567.2
5.7944e-24,568
3.3565e-24,568.8
5.7778e-24,569.6
2.0176e-24,570.4
4.4419e-25,571.2
6.0485e-24,572
3.3758e-24,572.8
3.4332e-24,573.6
2.7946e-24,574.4
6.1127e-24,575.2
9.2238e-25,576
1.5985e-24,576.8
2.3758e-25,577.6
2.9962e-24,578.4
2.41e-24,579.2
6.0313e-24,580
2.663e-24,580.8
6.2906e-24,581.6
1.2313e-23,582.4
5.4628e-24,583.2
8.7757e-25,584
2.5478e-24,584.8
7.5354e-25,585.6
1.4552e-24,586.4
2.8627e-24,587.2
7.2694e-24,588
8.6224e-24,588.8
3.8134e-23,589.6
5.7435e-24,590.4
2.8267e-24,591.2
3.5916e-24,592
4.9104e-25,592.8
5.4735e-24,593.6
1.3311e-24,594.4
2.4332e-25,595.2
2.9188e-24,596
6.8513e-25,596.8
1.3423e-24,597.6
7.1831e-25,598.4
5.6911e-24,599.2
7.2283e-25,600
3.1894e-24,600.8
1.8186e-24,601.6
2.405e-24,602.4
5.7818e-24,603.2
3.8866e-24,604
1.5163e-25,604.8
1.073e-23,605.6
1.3119e-23,606.4
6.1733e-24,607.2
4.9156e-24,608
2.6322e-24,608.8
1.7846e-24,609.6
1.0297e-24,610.4
4.8213e-25,611.2
2.7667e-25,612
8.4305e-25,612.8
6.0301e-24,613.6
1.2449e-24,614.4
2.5543e-24,615.2
7.7163e-24,616
3.9945e-25,616.8
7.1578e-25,617.6
3.6007e-24,618.4
2.7568e-25,619.2
6.7331e-24,620
2.4745e-23,620.8
3.704e-23,621.6
4.2235e-23,622.4
1.2465e-24,623.2
4.1966e-24,624
8.7004e-23,624.8
3.0439e-23,625.6
6.4731e-23,626.4
1.9504e-23,627.2
1.6312e-24,628
3.5391e-24,628.8
8.6333e-25,629.6
6.6592e-25,630.4
1.0082e-24,631.2
1.0553e-24,632
4.9223e-24,632.8
5.4316e-24,633.6
4.3934e-24,634.4
3.022e-24,635.2
4.8355e-24,636
1.6976e-24,636.8
1.6768e-24,637.6
2.6713e-24,638.4
1.4143e-25,639.2
7.0552e-25,640
1.4306e-24,640.8
1.6588e-26,641.6
1.8616e-24,642.4
1.6783e-24,643.2
2.7397e-25,644
3.4815e-24,644.8
2.6162e-24,645.6
7.9409e-25,646.4
4.9452e-25,647.2
3.6694e-24,648
3.664e-24,648.8
2.6384e-24,649.6
3.777e-24,650.4
1.9764e-24,651.2
4.2602e-25,652
3.8176e-25,652.8
9.1927e-26,653.6
3.7504e-24,654.4
5.2143e-25,655.2
9.9851e-25,656
2.5783e-24,656.8
3.3361e-24,657.6
3.2292e-24,658.4
3.3166e-25,659.2
1.3149e-24,660
6.1234e-24,660.8
1.7963e-24,661.6
1.5631e-23,662.4
9.6222e-24,663.2
1.0901e-22,664
2.6388e-22,664.8
1.8367e-22,665.6
1.3959e-23,666.4
8.847e-24,667.2
2.2486e-24,668
1.1309e-23,668.8
1.7158e-24,669.6
1.7215e-24,670.4
1.2171e-24,671.2
2.234e-25,672
2.6922e-24,672.8
2.7796e-24,673.6
1.4284e-24,674.4
7.1232e-25,675.2
2.6228e-25,676
1.2812e-24,676.8
3.3352e-24,677.6
1.2969e-24,678.4
2.6348e-25,679.2
3.4008e-24,680
1.0154e-23,680.8
8.0141e-24,681.6
1.417e-23,682.4
5.5346e-24,683.2
4.9622e-24,684
4.8295e-24,684.8
3.7178e-24,685.6
8.7916e-24,686.4
6.5051e-24,687.2
5.0407e-24,688
1.0124e-23,688.8
1.8017e-24,689.6
7.9007e-24,690.4
2.0607e-24,691.2
7.2308e-25,692
2.4416e-24,692.8
6.0894e-25,693.6
7.2922e-25,694.4
5.4478e-24,695.2
8.4856e-25,696
5.085e-24,696.8
5.2277e-24,697.6
4.1299e-25,698.4
1.0115e-24,699.2
9.0386e-25,700
5.9276e-25,700.8
2.0939e-24,701.6
4.5313e-26,702.4
1.3929e-24,703.2
8.0217e-25,704
1.7265e-24,704.8
8.0082e-24,705.6
6.914e-24,706.4
9.956e-25,707.2
5.5737e-24,708
6.9186e-24,708.8
6.7022e-24,709.6
2.0504e-24,710.4
3.4039e-25,711.2
3.0641e-24,712
1.3061e-24,712.8
7.168e-24,713.6
1.2238e-23,714.4
4.8912e-24,715.2
4.6666e-24,716
3.0813e-24,716.8
3.8922e-24,717.6
1.098e-24,718.4
8.1575e-24,719.2
8.7321e-24,720
2.9439e-24,720.8
6.3229e-24,721.6
2.1615e-24,722.4
7.637e-25,723.2
1.5243e-26,724
8.1644e-25,724.8
2.2806e-24,725.6
1.787e-24,726.4
1.6093e-24,727.2
1.3374e-24,728
1.0489e-24,728.8
2.4974e-24,729.6
7.0785e-25,730.4
1.2002e-26,731.2
5.9649e-26,732
9.6156e-26,732.8
1.0469e-24,733.6
3.3619e-26,734.4
1.475e-24,735.2
1.4944e-24,736
2.0316e-24,736.8
2.1849e-24,737.6
6.2282e-25,738.4
2.3852e-25,739.2
5.9929e-25,740
4.2436e-25,740.8
1.5738e-24,741.6
1.9933e-24,742.4
3.3554e-25,743.2
5.0827e-26,744
9.0257e-25,744.8
7.2485e-25,745.6
8.3823e-24,746.4
9.1905e-24,747.2
6.5734e-24,748
4.0498e-24,748.8
2.4695e-23,749.6
1.0467e-24,750.4
3.5023e-23,751.2
4.6356e-23,752
4.1705e-23,752.8
7.4342e-23,753.6
1.3935e-22,754.4
2.7056e-22,755.2
2.1314e-22,756
1.5786e-22,756.8
1.1134e-22,757.6
1.1175e-22,758.4
1.6671e-23,759.2
1.0234e-23,760
1.0729e-23,760.8
3.7711e-24,761.6
3.1097e-24,762.4
2.4368e-24,763.2
2.9514e-24,764
9.1049e-25,764.8
2.1014e-24,765.6
7.1723e-24,766.4
2.2843e-23,767.2
1.5563e-23,768
1.7345e-24,768.8
1.878e-25,769.6
3.6544e-24,770.4
1.0577e-23,771.2
1.1493e-23,772
7.3061e-25,772.8
2.6595e-24,773.6
1.1476e-24,774.4
6.009e-24,775.2
1.935e-23,776
9.3622e-24,776.8
5.8258e-24,777.6
1.148e-23,778.4
7.499e-24,779.2
6.5101e-24,780
1.6238e-23,780.8
1.1364e-23,781.6
2.5485e-24,782.4
2.32e-24,783.2
4.9976e-24,784
4.04e-24,784.8
2.379e-23,785.6
3.0774e-24,786.4
2.1911e-23,787.2
3.3181e-23,788
1.869e-23,788.8
3.0873e-23,789.6
1.6027e-23,790.4
3.0299e-24,791.2
4.9346e-24,792
1.2886e-24,792.8
3.0628e-24,793.6
2.0919e-24,794.4
1.5415e-24,795.2
1.8256e-24,796
1.1261e-25,796.8
5.7157e-25,797.6
1.8888e-24,798.4
9.8245e-25,799.2
2.4281e-24,800
1.3657e-24,800.8
6.1522e-25,801.6
1.676e-24,802.4
3.6757e-25,803.2
3.3613e-25,804
1.3694e-24,804.8
7.0567e-25,805.6
2.4531e-24,806.4
4.3297e-25,807.2
4.5774e-26,808
6.4838e-25,808.8
1.1255e-23,809.6
3.7456e-24,810.4
3.5818e-24,811.2
6.1247e-24,812
4.0189e-24,812.8
4.9315e-24,813.6
4.5194e-24,814.4
7.8841e-25,815.2
9.7738e-25,816
4.8205e-24,816.8
2.232e-25,817.6
2.6373e-24,818.4
4.5447e-24,819.2
2.9939e-26,820
6.3365e-25,820.8
3.1731e-24,821.6
2.3027e-24,822.4
1.622e-24,823.2
3.6162e-25,824
7.7508e-24,824.8
4.5865e-24,825.6
1.6238e-25,826.4
1.1497e-23,827.2
1.3482e-23,828
1.2706e-23,828.8
1.1389e-23,829.6
3.111e-23,830.4
2.0622e-23,831.2
6.1974e-24,832
2.3874e-24,832.8
2.5781e-24,833.6
3.5664e-24,834.4
1.1584e-25,835.2
1.9076e-24,836
2.7341e-24,836.8
1.3062e-24,837.6
2.3613e-25,838.4
1.9435e-25,839.2
5.9741e-26,840
1.0745e-24,840.8
1.4323e-25,841.6
3.418e-25,842.4
1.0445e-24,843.2
9.3707e-25,844
3.1983e-24,844.8
1.2055e-24,845.6
3.4175e-24,846.4
1.1896e-23,847.2
9.5869e-24,848
1.153e-24,848.8
8.5496e-25,849.6
4.7653e-25,850.4
1.4011e-25,851.2
2.6233e-25,852
4.8762e-25,852.8
4.564e-25,853.6
2.667e-25,854.4
1.2183e-26,855.2
8.5133e-25,856
1.2603e-24,856.8
9.6381e-25,857.6
1.4571e-24,858.4
1.2345e-24,859.2
7.0734e-25,860
8.8257e-25,860.8
7.009e-26,861.6
4.0357e-25,862.4
1.2064e-24,863.2
6.1759e-25,864
4.6628e-25,864.8
5.423e-25,865.6
2.7754e-25,866.4
1.0997e-24,867.2
6.829e-25,868
1.475e-24,868.8
3.9883e-26,869.6
1.3766e-24,870.4
1.0308e-24,871.2
1.4583e-24,872
3.4978e-25,872.8
1.8993e-25,873.6
5.9849e-25,874.4
5.0904e-24,875.2
3.6832e-24,876
8.6698e-25,876.8
1.222e-25,877.6
2.3876e-25,878.4
2.7582e-25,879.2
1.4818e-24,880
5.8311e-25,880.8
3.1618e-25,881.6
2.7217e-26,882.4
5.9276e-25,883.2
1.249e-24,884
2.0777e-24,884.8
1.3368e-24,885.6
2.7725e-24,886.4
1.3532e-24,887.2
7.0204e-24,888
2.418e-24,888.8
1.8394e-24,889.6
4.248e-24,890.4
2.0334e-24,891.2
5.7627e-24,892
4.6534e-24,892.8
2.7784e-24,893.6
5.1791e-24,894.4
1.9604e-24,895.2
1.8713e-24,896
2.2282e-24,896.8
4.4523e-24,897.6
5.4534e-25,898.4
2.2491e-24,899.2
2.5233e-24,900
9.696e-25,900.8
2.2322e-24,901.6
4.3879e-24,902.4
8.5166e-25,903.2
2.2973e-24,904
4.6341e-24,904.8
3.7809e-24,905.6
4.8695e-24,906.4
2.1536e-24,907.2
4.6561e-24,908
7.2643e-24,908.8
1.3757e-24,909.6
1.0417e-24,910.4
2.2613e-24,911.2
1.337e-25,912
1.7753e-24,912.8
3.183e-24,913.6
2.9972e-24,914.4
5.1968e-25,915.2
1.315e-25,916
7.4128e-25,916.8
1.6864e-24,917.6
1.591e-24,918.4
4.7914e-24,919.2
6.8006e-24,920
2.9456e-24,920.8
1.2712e-23,921.6
8.0075e-24,922.4
4.8643e-24,923.2
2.2756e-24,924
2.3727e-24,924.8
3.6342e-24,925.6
1.0498e-25,926.4
2.2733e-24,927.2
2.4498e-24,928
1.031e-23,928.8
1.7702e-23,929.6
9.6546e-25,930.4
1.487e-23,931.2
1.4664e-23,932
3.1774e-24,932.8
7.7488e-25,933.6
5.559e-25,934.4
1.7653e-24,935.2
6.2902e-25,936
8.431e-24,936.8
5.481e-24,937.6
1.3392e-23,938.4
1.3405e-23,939.2
1.1276e-24,940
7.6532e-24,940.8
3.9784e-24,941.6
1.9237e-25,942.4
4.4784e-25,943.2
1.5505e-23,944
2.2743e-24,944.8
3.7008e-24,945.6
8.9439e-24,946.4
2.6956e-23,947.2
2.1826e-23,948
2.1147e-23,948.8
2.3344e-24,949.6
1.6799e-23,950.4
2.6895e-23,951.2
1.8641e-23,952
4.487e-24,952.8
6.6882e-25,953.6
7.6707e-24,954.4
1.7298e-23,955.2
1.2044e-23,956
6.0923e-24,956.8
4.5291e-24,957.6
9.021e-24,958.4
3.7405e-24,959.2
1.8504e-23,960
8.1293e-24,960.8
2.4155e-25,961.6
3.2378e-24,962.4
7.9005e-24,963.2
2.5875e-23,964
4.335e-23,964.8
1.0016e-23,965.6
9.1738e-24,966.4
9.6488e-24,967.2
5.6818e-24,968
1.3735e-23,968.8
4.9947e-23,969.6
3.9169e-23,970.4
3.0358e-23,971.2
1.141e-23,972
2.7297e-23,972.8
8.7632e-24,973.6
1.6604e-23,974.4
4.7816e-23,975.2
2.4077e-23,976
5.2288e-24,976.8
6.05e-24,977.6
3.7522e-24,978.4
1.7052e-24,979.2
2.7976e-24,980
8.0177e-25,980.8
7.705e-24,981.6
2.4099e-24,982.4
3.1091e-24,983.2
4.0586e-24,984
2.9319e-24,984.8
4.8724e-24,985.6
2.3862e-24,986.4
4.4614e-25,987.2
2.6328e-24,988
3.3139e-25,988.8
3.3337e-24,989.6
7.0897e-25,990.4
4.3323e-24,991.2
1.73e-24,992
1.3801e-25,992.8
6.7509e-24,993.6
7.0153e-24,994.4
1.0173e-25,995.2
2.1462e-24,996
2.1905e-24,996.8
5.4422e-24,997.6
1.098e-23,998.4
9.0712e-25,999.2
3.615e-24,1000
8.5484e-26,1000.8
1.086e-23,1001.6
7.2195e-24,1002.4
2.3861e-25,1003.2
9.2257e-25,1004
3.5025e-24,1004.8
1.879e-23,1005.6
1.6357e-23,1006.4
2.4419e-24,1007.2
1.4888e-23,1008
1.3096e-23,1008.8
2.0892e-22,1009.6
3.3339e-22,1010.4
7.1731e-23,1011.2
5.3864e-23,1012
2.6012e-22,1012.8
2.428e-22,1013.6
3.2228e-23,1014.4
6.5188e-24,1015.2
1.1166e-24,1016
1.2963e-23,1016.8
2.6392e-23,1017.6
7.703e-25,1018.4
4.4212e-24,1019.2
4.6615e-24,1020
9.5911e-24,1020.8
1.5641e-23,1021.6
5.8075e-24,1022.4
4.9682e-24,1023.2
4.1567e-24,1024
6.0733e-24,1024.8
1.7727e-24,1025.6
1.7324e-24,1026.4
1.7148e-24,1027.2
2.7396e-24,1028
6.6916e-24,1028.8
7.6416e-24,1029.6
8.3131e-24,1030.4
2.5434e-24,1031.2
1.311e-23,1032
4.1433e-23,1032.8
1.1899e-23,1033.6
5.7955e-24,1034.4
7.8312e-25,1035.2
1.0649e-23,1036
4.0254e-23,1036.8
3.7912e-23,1037.6
6.9382e-24,1038.4
1.48e-23,1039.2
1.0063e-23,1040
6.6063e-25,1040.8
4.1173e-24,1041.6
5.8071e-24,1042.4
5.2476e-24,1043.2
4.8727e-24,1044
5.1596e-24,1044.8
2.2878e-25,1045.6
2.3912e-23,1046.4
2.362e-24,1047.2
1.0842e-24,1048
3.4968e-24,1048.8
4.3714e-24,1049.6
1.2965e-23,1050.4
1.1162e-23,1051.2
3.4239e-23,1052
1.4081e-22,1052.8
9.8337e-23,1053.6
3.4076e-23,1054.4
1.7462e-23,1055.2
7.117e-23,1056
3.6303e-23,1056.8
2.5308e-23,1057.6
2.7266e-23,1058.4
2.6374e-23,1059.2
1.3216e-23,1060
3.3907e-24,1060.8
1.6481e-23,1061.6
6.7066e-24,1062.4
6.7165e-24,1063.2
5.6633e-25,1064
1.6355e-23,1064.8
7.4489e-24,1065.6
8.7482e-24,1066.4
7.159e-24,1067.2
3.9836e-24,1068
1.8916e-25,1068.8
8.847e-24,1069.6
2.3324e-23,1070.4
1.5601e-23,1071.2
1.6362e-23,1072
1.644e-24,1072.8
1.827e-23,1073.6
9.4738e-24,1074.4
5.3902e-25,1075.2
5.0245e-24,1076
4.0977e-24,1076.8
4.0733e-24,1077.6
1.3162e-24,1078.4
3.1531e-24,1079.2
4.3284e-24,1080
1.3818e-25,1080.8
3.2093e-24,1081.6
8.5578e-25,1082.4
1.7787e-25,1083.2
4.955e-24,1084
5.5352e-25,1084.8
5.4024e-24,1085.6
1.5338e-24,1086.4
2.0271e-24,1087.2
1.9496e-24,1088
2.2201e-24,1088.8
3.8454e-24,1089.6
1.0416e-24,1090.4
9.8794e-24,1091.2
1.6542e-24,1092
1.3955e-23,1092.8
1.842e-24,1093.6
2.7515e-24,1094.4
4.1228e-24,1095.2
4.8351e-24,1096
7.7246e-24,1096.8
9.4062e-25,1097.6
4.4781e-24,1098.4
9.0366e-25,1099.2
4.6716e-24,1100
2.4313e-24,1100.8
1.5305e-24,1101.6
1.7998e-24,1102.4
3.6422e-24,1103.2
4.2061e-25,1104
6.1157e-25,1104.8
1.8017e-24,1105.6
5.1137e-26,1106.4
4.5561e-25,1107.2
1.5473e-25,1108
7.9222e-26,1108.8
2.2852e-24,1109.6
4.2696e-25,1110.4
3.0554e-24,1111.2
5.7876e-24,1112
3.1274e-24,1112.8
1.1443e-24,1113.6
8.1392e-25,1114.4
8.2757e-25,1115.2
2.9655e-25,1116
6.3722e-25,1116.8
1.1413e-24,1117.6
4.6525e-25,1118.4
1.845e-25,1119.2
9.5528e-26,1120
1.2514e-25,1120.8
1.0982e-24,1121.6
1.2587e-24,1122.4
3.851e-24,1123.2
6.6185e-24,1124
1.2129e-23,1124.8
6.1212e-24,1125.6
4.6002e-24,1126.4
3.8572e-24,1127.2
7.3305e-24,1128
2.2608e-23,1128.8
1.5955e-23,1129.6
3.6429e-24,1130.4
4.2334e-24,1131.2
6.5969e-24,1132
9.5926e-25,1132.8
2.0363e-24,1133.6
1.1404e-24,1134.4
4.4298e-24,1135.2
1.8379e-24,1136
1.8579e-24,1136.8
1.4608e-24,1137.6
5.8963e-24,1138.4
7.6002e-24,1139.2
8.5102e-26,1140
1.0522e-24,1140.8
1.4367e-24,1141.6
9.1814e-25,1142.4
3.2332e-25,1143.2
2.8053e-26,1144
5.7011e-25,1144.8
1.3007e-26,1145.6
1.2876e-24,1146.4
1.2886e-25,1147.2
6.8938e-26,1148
2.5273e-26,1148.8
1.5777e-25,1149.6
1.0017e-24,1150.4
1.4528e-24,1151.2
1.3901e-24,1152
2.6745e-26,1152.8
2.4816e-24,1153.6
3.545e-24,1154.4
2.551e-24,1155.2
1.1395e-25,1156
2.2431e-24,1156.8
1.5495e-23,1157.6
4.2212e-24,1158.4
1.7589e-24,1159.2
1.0807e-24,1160
4.1965e-24,1160.8
1.1696e-23,1161.6
1.9139e-24,1162.4
1.2032e-24,1163.2
1.6137e-24,1164
7.3152e-25,1164.8
2.0492e-24,1165.6
3.3507e-26,1166.4
2.0578e-25,1167.2
1.0566e-25,1168
2.4467e-24,1168.8
2.3743e-24,1169.6
3.2488e-25,1170.4
7.041e-24,1171.2
1.7324e-24,1172
9.0029e-25,1172.8
1.8138e-24,1173.6
4.4662e-24,1174.4
3.2374e-26,1175.2
3.0757e-24,1176
4.7376e-24,1176.8
2.0548e-24,1177.6
3.5363e-26,1178.4
2.0889e-24,1179.2
3.7967e-24,1180
1.4911e-24,1180.8
9.898e-25,1181.6
8.3703e-25,1182.4
1.0802e-24,1183.2
4.6419e-25,1184
5.0821e-25,1184.8
5.058e-26,1185.6
2.6954e-25,1186.4
4.9637e-24,1187.2
1.1867e-24,1188
1.9991e-24,1188.8
1.3115e-24,1189.6
6.8583e-25,1190.4
3.0915e-24,1191.2
1.1983e-25,1192
3.5363e-26,1192.8
8.5507e-25,1193.6
1.5305e-24,1194.4
4.3465e-24,1195.2
8.787e-24,1196
1.4326e-23,1196.8
1.7713e-24,1197.6
4.3231e-24,1198.4
1.0866e-25,1199.2
4.9373e-24,1200
1.5361e-23,1200.8
1.3902e-23,1201.6
2.8493e-24,1202.4
2.018e-23,1203.2
7.5429e-24,1204
1.8211e-24,1204.8
1.6063e-24,1205.6
1.5595e-23,1206.4
4.7576e-24,1207.2
2.5699e-23,1208
1.8232e-23,1208.8
6.9287e-25,1209.6
6.1918e-24,1210.4
2.7029e-23,1211.2
1.9149e-23,1212
1.5399e-23,1212.8
1.9657e-23,1213.6
4.7134e-23,1214.4
4.8886e-23,1215.2
3.7099e-23,1216
1.576e-22,1216.8
1.1628e-22,1217.6
2.2526e-21,1218.4
3.718e-21,1219.2
1.1433e-21,1220
1.2702e-23,1220.8
1.418e-22,1221.6
7.0033e-25,1222.4
7.5709e-23,1223.2
8.2526e-24,1224
6.4148e-23,1224.8
2.355e-23,1225.6
1.3673e-23,1226.4
7.0535e-23,1227.2
2.5276e-23,1228
2.4414e-23,1228.8
5.7397e-23,1229.6
2.3868e-23,1230.4
2.5907e-23,1231.2
3.7827e-24,1232
2.0794e-23,1232.8
2.3448e-24,1233.6
1.5173e-24,1234.4
5.0564e-24,1235.2
8.6702e-24,1236
3.8137e-24,1236.8
3.3113e-24,1237.6
2.0171e-24,1238.4
6.7123e-24,1239.2
3.3963e-24,1240
5.0444e-25,1240.8
1.9527e-24,1241.6
2.2052e-25,1242.4
5.401e-24,1243.2
1.0304e-25,1244
2.0935e-24,1244.8
7.954e-25,1245.6
1.1506e-24,1246.4
1.4603e-24,1247.2
8.8391e-25,1248
1.943e-24,1248.8
3.2931e-25,1249.6
1.6048e-25,1250.4
1.9019e-24,1251.2
3.5228e-25,1252
1.642e-24,1252.8
2.0645e-24,1253.6
8.9399e-25,1254.4
3.1772e-24,1255.2
4.2884e-24,1256
1.0683e-23,1256.8
2.4332e-24,1257.6
3.1382e-25,1258.4
1.2046e-25,1259.2
3.7922e-24,1260
6.1831e-24,1260.8
3.1335e-24,1261.6
1.9091e-25,1262.4
1.5515e-24,1263.2
1.4076e-24,1264
1.6888e-23,1264.8
4.183e-23,1265.6
5.4192e-23,1266.4
9.6959e-23,1267.2
1.0524e-22,1268
7.408e-23,1268.8
3.7956e-23,1269.6
2.0097e-23,1270.4
2.6355e-24,1271.2
7.4758e-24,1272
1.0805e-23,1272.8
1.127e-23,1273.6
1.6038e-23,1274.4
1.5254e-23,1275.2
2.9018e-22,1276
7.7436e-22,1276.8
7.2841e-22,1277.6
1.8929e-22,1278.4
3.1404e-23,1279.2
6.6947e-23,1280
7.9842e-24,1280.8
2.1192e-23,1281.6
9.8329e-24,1282.4
1.6834e-23,1283.2
7.9641e-24,1284
6.5973e-24,1284.8
4.3203e-24,1285.6
1.9547e-23,1286.4
6.2318e-24,1287.2
9.6561e-24,1288
1.1359e-23,1288.8
1.5534e-23,1289.6
8.3229e-24,1290.4
1.907e-24,1291.2
9.5462e-24,1292
1.2237e-23,1292.8
3.2999e-24,1293.6
3.1608e-23,1294.4
3.9079e-23,1295.2
9.4046e-24,1296
1.094e-23,1296.8
2.5755e-24,1297.6
9.0067e-24,1298.4
2.1911e-23,1299.2
7.2705e-24,1300
2.2203e-24,1300.8
5.4523e-24,1301.6
2.7507e-24,1302.4
8.3332e-24,1303.2
1.8022e-24,1304
2.0449e-25,1304.8
4.5553e-25,1305.6
3.353e-24,1306.4
2.1028e-24,1307.2
3.8135e-24,1308
2.9141e-24,1308.8
9.5472e-25,1309.6
1.6584e-24,1310.4
2.715e-24,1311.2
9.6131e-25,1312
1.5668e-25,1312.8
2.5616e-24,1313.6
7.3332e-25,1314.4
1.5138e-24,1315.2
3.529e-25,1316
2.0547e-25,1316.8
2.0955e-25,1317.6
1.2706e-24,1318.4
5.2901e-24,1319.2
5.8634e-24,1320
2.2121e-24,1320.8
2.0355e-24,1321.6
3.3621e-24,1322.4
9.1209e-25,1323.2
3.2088e-24,1324
2.5018e-24,1324.8
1.8372e-25,1325.6
7.0555e-25,1326.4
3.0087e-24,1327.2
2.7108e-24,1328
6.4025e-25,1328.8
2.0385e-25,1329.6
1.2518e-24,1330.4
5.7759e-25,1331.2
2.6118e-24,1332
2.7237e-24,1332.8
2.8358e-24,1333.6
2.7901e-24,1334.4
6.5592e-25,1335.2
7.3662e-24,1336
1.5154e-24,1336.8
1.8718e-24,1337.6
6.3525e-24,1338.4
3.686e-25,1339.2
2.0631e-24,1340
1.539e-24,1340.8
3.0684e-24,1341.6
2.6268e-24,1342.4
1.7043e-24,1343.2
2.1394e-24,1344
2.9222e-24,1344.8
2.3041e-25,1345.6
3.4744e-26,1346.4
1.1986e-24,1347.2
8.1734e-25,1348
6.261e-25,1348.8
5.6316e-25,1349.6
5.4201e-25,1350.4
2.8604e-25,1351.2
1.2748e-24,1352
6.226e-25,1352.8
1.7683e-24,1353.6
6.4044e-24,1354.4
7.0947e-26,1355.2
2.3355e-24,1356
1.1664e-23,1356.8
2.154e-23,1357.6
2.0742e-24,1358.4
2.7724e-24,1359.2
1.1606e-24,1360
1.4282e-23,1360.8
8.3973e-24,1361.6
4.1813e-24,1362.4
2.4062e-24,1363.2
8.8045e-25,1364
1.8276e-24,1364.8
6.0626e-25,1365.6
8.0712e-25,1366.4
1.3228e-25,1367.2
4.6012e-25,1368
5.8003e-24,1368.8
3.7161e-25,1369.6
4.4964e-24,1370.4
3.2881e-25,1371.2
9.7944e-25,1372
1.1498e-24,1372.8
1.4671e-24,1373.6
2.1648e-24,1374.4
2.3644e-26,1375.2
2.7055e-24,1376
3.1275e-24,1376.8
2.0464e-24,1377.6
8.2578e-24,1378.4
5.1368e-24,1379.2
3.4844e-24,1380
2.2661e-23,1380.8
4.6469e-24,1381.6
1.405e-23,1382.4
1.698e-22,1383.2
5.942e-22,1384
1.4884e-22,1384.8
1.1015e-23,1385.6
7.905e-24,1386.4
1.3998e-24,1387.2
4.6575e-24,1388
4.6899e-24,1388.8
2.9582e-24,1389.6
1.4375e-24,1390.4
3.9936e-24,1391.2
2.3168e-24,1392
4.904e-24,1392.8
4.9289e-24,1393.6
2.3652e-24,1394.4
2.185e-24,1395.2
3.1175e-24,1396
1.6113e-24,1396.8
4.2465e-25,1397.6
2.2552e-24,1398.4
6.1345e-25,1399.2
1.1434e-23,1400
1.2712e-23,1400.8
2.1865e-24,1401.6
7.712e-24,1402.4
1.1786e-23,1403.2
1.9978e-24,1404
1.1183e-24,1404.8
3.0149e-24,1405.6
7.742e-24,1406.4
7.5201e-25,1407.2
8.1943e-25,1408
1.1263e-24,1408.8
2.3506e-25,1409.6
5.4206e-24,1410.4
2.9321e-24,1411.2
3.1186e-24,1412
3.3067e-27,1412.8
5.5165e-26,1413.6
1.3408e-24,1414.4
5.3827e-25,1415.2
7.8578e-24,1416
5.0917e-26,1416.8
9.9588e-24,1417.6
4.0856e-24,1418.4
1.0902e-23,1419.2
2.279e-23,1420
5.0289e-24,1420.8
7.2157e-24,1421.6
6.9111e-25,1422.4
1.6675e-23,1423.2
3.228e-24,1424
3.1417e-24,1424.8
1.068e-24,1425.6
5.5048e-24,1426.4
2.0539e-24,1427.2
3.9121e-25,1428
8.3679e-24,1428.8
5.6881e-25,1429.6
1.2978e-24,1430.4
4.296e-25,1431.2
1.7362e-24,1432
2.8609e-25,1432.8
3.0894e-24,1433.6
2.0546e-24,1434.4
1.5315e-24,1435.2
5.2226e-24,1436
1.1301e-23,1436.8
4.1766e-24,1437.6
2.304e-24,1438.4
3.4643e-23,1439.2
3.4911e-23,1440
1.7686e-22,1440.8
5.1607e-22,1441.6
5.9773e-22,1442.4
1.5748e-22,1443.2
2.6993e-23,1444
2.4462e-23,1444.8
2.8387e-24,1445.6
1.1166e-23,1446.4
6.6453e-24,1447.2
5.5559e-24,1448
1.1351e-23,1448.8
8.1027e-24,1449.6
6.1337e-24,1450.4
2.1522e-25,1451.2
5.1465e-24,1452
8.5788e-24,1452.8
9.1776e-25,1453.6
1.3678e-23,1454.4
3.9247e-25,1455.2
2.4404e-25,1456
1.304e-23,1456.8
1.2005e-24,1457.6
4.1802e-23,1458.4
1.7794e-23,1459.2
1.6364e-23,1460
5.7065e-23,1460.8
1.26e-23,1461.6
5.7163e-24,1462.4
4.0027e-23,1463.2
2.1504e-24,1464
6.1725e-24,1464.8
6.6301e-25,1465.6
1.0258e-23,1466.4
2.7324e-24,1467.2
2.1066e-24,1468
4.7649e-24,1468.8
4.7884e-24,1469.6
7.6132e-24,1470.4
7.6998e-24,1471.2
5.2624e-24,1472
8.2703e-25,1472.8
2.5589e-23,1473.6
3.6807e-23,1474.4
6.8577e-24,1475.2
8.174e-24,1476
1.1203e-23,1476.8
1.7727e-23,1477.6
2.724e-23,1478.4
2.1369e-23,1479.2
1.7337e-23,1480
8.7485e-23,1480.8
1.5716e-22,1481.6
7.2273e-22,1482.4
6.9492e-24,1483.2
1.0901e-22,1484
2.3795e-23,1484.8
6.7008e-22,1485.6
1.7292e-22,1486.4
7.0012e-23,1487.2
5.4555e-23,1488
5.3596e-23,1488.8
6.3925e-23,1489.6
7.6308e-23,1490.4
2.8129e-24,1491.2
2.8507e-24,1492
1.6596e-24,1492.8
8.0406e-24,1493.6
6.8381e-24,1494.4
7.8244e-24,1495.2
3.4793e-24,1496
1.1852e-23,1496.8
1.5086e-23,1497.6
1.411e-23,1498.4
1.5722e-24,1499.2
1.6702e-24,1500
1.3295e-24,1500.8
1.1931e-23,1501.6
5.694e-24,1502.4
3.877e-24,1503.2
6.4648e-24,1504
8.422e-24,1504.8
4.0825e-24,1505.6
1.025e-23,1506.4
2.1627e-25,1507.2
1.1459e-24,1508
2.8526e-24,1508.8
5.9656e-25,1509.6
9.7038e-25,1510.4
9.7981e-24,1511.2
2.971e-24,1512
9.071e-24,1512.8
7.0531e-24,1513.6
8.6461e-24,1514.4
2.6071e-24,1515.2
1.7913e-24,1516
3.7051e-24,1516.8
4.2412e-25,1517.6
5.5076e-24,1518.4
3.4543e-23,1519.2
9.2858e-24,1520
1.3373e-22,1520.8
3.2872e-23,1521.6
1.0407e-22,1522.4
5.2709e-23,1523.2
3.63e-23,1524
3.2863e-24,1524.8
2.8563e-23,1525.6
2.2631e-23,1526.4
1.5687e-23,1527.2
3.6568e-25,1528
9.613e-24,1528.8
1.1782e-23,1529.6
3.4242e-24,1530.4
1.0246e-23,1531.2
1.9881e-23,1532
1.8516e-23,1532.8
8.9973e-24,1533.6
7.8529e-24,1534.4
5.1001e-24,1535.2
2.4399e-24,1536
6.2023e-25,1536.8
3.1569e-24,1537.6
3.9964e-25,1538.4
2.8842e-25,1539.2
3.3443e-24,1540
2.9081e-24,1540.8
1.1426e-23,1541.6
1.7617e-24,1542.4
1.6411e-23,1543.2
3.9961e-23,1544
4.5716e-23,1544.8
1.2864e-24,1545.6
3.3338e-23,1546.4
1.8709e-23,1547.2
1.1897e-22,1548
4.5213e-23,1548.8
3.9693e-23,1549.6
4.2065e-23,1550.4
3.6327e-24,1551.2
3.325e-23,1552
1.499e-23,1552.8
5.7198e-25,1553.6
1.091e-23,1554.4
1.9551e-24,1555.2
1.7441e-24,1556
1.6798e-23,1556.8
8.3276e-24,1557.6
2.2134e-24,1558.4
4.1055e-24,1559.2
1.9315e-24,1560
4.2169e-24,1560.8
1.2434e-24,1561.6
1.5741e-24,1562.4
2.8833e-24,1563.2
8.5729e-24,1564
2.7284e-23,1564.8
4.4948e-23,1565.6
4.1224e-23,1566.4
2.321e-23,1567.2
8.789e-24,1568
5.9548e-24,1568.8
1.0397e-25,1569.6
1.7028e-24,1570.4
7.0612e-26,1571.2
5.2626e-25,1572
3.9319e-24,1572.8
3.923e-24,1573.6
2.5874e-24,1574.4
3.7718e-24,1575.2
1.6968e-25,1576
7.5146e-25,1576.8
4.0047e-25,1577.6
5.2893e-26,1578.4
9.1685e-25,1579.2
1.0874e-24,1580
4.5982e-26,1580.8
3.7587e-25,1581.6
8.5351e-25,1582.4
8.5182e-24,1583.2
2.0671e-24,1584
1.1894e-24,1584.8
4.1503e-24,1585.6
4.1928e-25,1586.4
5.5092e-25,1587.2
1.6292e-24,1588
1.1681e-23,1588.8
2.6369e-23,1589.6
4.6599e-24,1590.4
2.1757e-24,1591.2
4.1385e-24,1592
2.5186e-24,1592.8
5.394e-24,1593.6
5.7644e-24,1594.4
3.942e-25,1595.2
6.7201e-25,1596
6.6567e-25,1596.8
3.2346e-25,1597.6
2.3746e-24,1598.4
1.2401e-24,1599.2
2.7675e-24,1600
1.9999e-24,1600.8
7.853e-25,1601.6
1.5026e-24,1602.4
7.5505e-24,1603.2
3.3284e-24,1604
2.5328e-24,1604.8
3.2734e-24,1605.6
1.469e-23,1606.4
3.8915e-23,1607.2
1.1257e-23,1608
1.4565e-23,1608.8
1.4089e-24,1609.6
1.556e-23,1610.4
3.8587e-25,1611.2
2.6808e-24,1612
4.0501e-24,1612.8
1.805e-25,1613.6
2.4694e-24,1614.4
6.2837e-24,1615.2
2.4624e-24,1616
2.3407e-24,1616.8
1.0303e-24,1617.6
1.9414e-24,1618.4
2.3799e-24,1619.2
1.2273e-23,1620
2.114e-23,1620.8
5.2275e-23,1621.6
3.5437e-23,1622.4
3.463e-24,1623.2
2.3538e-25,1624
1.989e-23,1624.8
5.5023e-23,1625.6
2.0462e-23,1626.4
1.951e-23,1627.2
1.5686e-23,1628
3.299e-25,1628.8
3.8201e-26,1629.6
1.2019e-25,1630.4
5.2443e-25,1631.2
2.0087e-24,1632
1.2366e-24,1632.8
2.8377e-24,1633.6
1.8595e-24,1634.4
6.1986e-25,1635.2
1.4811e-24,1636
6.6699e-25,1636.8
2.761e-25,1637.6
7.2733e-25,1638.4
1.3485e-24,1639.2
1.7791e-25,1640
9.2069e-25,1640.8
6.1413e-26,1641.6
4.7325e-26,1642.4
3.1209e-25,1643.2
7.2991e-25,1644
2.7201e-24,1644.8
4.3206e-24,1645.6
1.6512e-24,1646.4
3.5639e-24,1647.2
4.571e-24,1648
4.5943e-25,1648.8
2.0315e-24,1649.6
6.4411e-25,1650.4
1.0213e-24,1651.2
2.2557e-24,1652
2.7702e-24,1652.8
1.6767e-24,1653.6
1.0193e-24,1654.4
1.103e-24,1655.2
4.3454e-25,1656
9.9087e-25,1656.8
2.7493e-25,1657.6
4.7431e-25,1658.4
1.0704e-24,1659.2
2.0943e-25,1660
3.6824e-26,1660.8
2.08e-24,1661.6
1.4665e-24,1662.4
1.0651e-24,1663.2
4.3075e-25,1664
8.6961e-25,1664.8
8.2928e-26,1665.6
4.4636e-24,1666.4
1.9872e-24,1667.2
7.8441e-25,1668
5.651e-24,1668.8
8.1427e-25,1669.6
2.5441e-24,1670.4
9.8448e-24,1671.2
5.3699e-24,1672
2.7209e-24,1672.8
1.0247e-24,1673.6
1.2265e-24,1674.4
5.6794e-24,1675.2
4.5435e-25,1676
1.248e-24,1676.8
8.0225e-25,1677.6
1.4677e-24,1678.4
1.7358e-25,1679.2
5.1546e-24,1680
2.5378e-24,1680.8
4.8186e-24,1681.6
1.2869e-23,1682.4
5.4681e-24,1683.2
2.5422e-24,1684
2.612e-24,1684.8
1.5853e-24,1685.6
4.7583e-24,1686.4
1.1944e-24,1687.2
2.1081e-24,1688
2.5541e-24,1688.8
4.8712e-25,1689.6
4.4446e-25,1690.4
1.1229e-25,1691.2
5.7852e-25,1692
1.4821e-24,1692.8
2.2565e-24,1693.6
1.4184e-24,1694.4
1.3638e-25,1695.2
1.4598e-24,1696
2.6423e-24,1696.8
6.7599e-24,1697.6
2.7557e-24,1698.4
1.2136e-24,1699.2
2.8676e-24,1700
1.2814e-24,1700.8
1.107e-24,1701.6
5.9835e-25,1702.4
3.9464e-24,1703.2
6.4028e-25,1704
5.5116e-25,1704.8
1.5118e-23,1705.6
1.1955e-23,1706.4
2.0666e-25,1707.2
1.1099e-23,1708
6.1796e-24,1708.8
4.5211e-24,1709.6
1.409e-24,1710.4
3.8375e-24,1711.2
8.1423e-24,1712
5.6327e-24,1712.8
1.7451e-24,1713.6
1.3334e-23,1714.4
9.4247e-24,1715.2
1.9804e-24,1716
2.844e-24,1716.8
1.6357e-24,1717.6
5.0764e-24,1718.4
9.8723e-24,1719.2
1.4539e-23,1720
8.5643e-24,1720.8
2.6088e-24,1721.6
1.3373e-24,1722.4
4.8826e-25,1723.2
1.923e-24,1724
7.4945e-24,1724.8
2.7235e-24,1725.6
2.9843e-25,1726.4
2.9769e-25,1727.2
9.9322e-24,1728
3.0557e-23,1728.8
3.0643e-23,1729.6
1.0783e-23,1730.4
8.5712e-24,1731.2
2.6604e-23,1732
3.5324e-24,1732.8
4.5455e-26,1733.6
2.2763e-24,1734.4
1.1746e-24,1735.2
1.6635e-24,1736
1.0727e-24,1736.8
4.3813e-23,1737.6
8.6456e-23,1738.4
8.6698e-23,1739.2
1.442e-22,1740
2.0203e-22,1740.8
1.1268e-22,1741.6
5.6354e-23,1742.4
5.0133e-23,1743.2
2.427e-23,1744
4.8538e-24,1744.8
1.3663e-23,1745.6
1.0307e-23,1746.4
4.2293e-24,1747.2
1.199e-23,1748
1.3883e-23,1748.8
3.9436e-23,1749.6
1.1687e-25,1750.4
5.9857e-24,1751.2
3.4526e-25,1752
1.1158e-25,1752.8
2.5551e-24,1753.6
2.2891e-23,1754.4
1.9017e-23,1755.2
1.1198e-24,1756
5.2552e-24,1756.8
4.3268e-24,1757.6
1.0211e-23,1758.4
1.1685e-23,1759.2
3.9706e-25,1760
5.3598e-26,1760.8
1.2531e-24,1761.6
2.1643e-24,1762.4
1.9803e-24,1763.2
6.0594e-24,1764
4.0576e-25,1764.8
4.4382e-25,1765.6
8.6963e-26,1766.4
1.2518e-24,1767.2
1.1613e-24,1768
1.8611e-24,1768.8
2.4557e-24,1769.6
3.7405e-24,1770.4
1.7647e-24,1771.2
4.8683e-24,1772
1.1453e-24,1772.8
4.4828e-24,1773.6
4.3902e-24,1774.4
4.2268e-24,1775.2
1.0949e-23,1776
6.3607e-24,1776.8
6.3989e-24,1777.6
1.2566e-23,1778.4
1.1757e-23,1779.2
6.5983e-24,1780
1.8315e-23,1780.8
1.1767e-23,1781.6
4.2525e-24,1782.4
6.0407e-24,1783.2
4.7451e-24,1784
7.2233e-24,1784.8
2.4471e-23,1785.6
5.1279e-25,1786.4
2.7814e-23,1787.2
3.7349e-23,1788
1.8631e-23,1788.8
2.2013e-23,1789.6
9.074e-24,1790.4
6.3318e-24,1791.2
1.2041e-23,1792
1.5984e-24,1792.8
2.9163e-24,1793.6
1.2922e-24,1794.4
1.118e-24,1795.2
1.4867e-24,1796
1.0909e-25,1796.8
5.9686e-25,1797.6
3.2173e-24,1798.4
8.3666e-24,1799.2
2.1342e-24,1800
3.462e-24,1800.8
1.1863e-24,1801.6
2.2778e-24,1802.4
3.1223e-24,1803.2
1.6131e-24,1804
4.6301e-24,1804.8
7.4293e-24,1805.6
3.681e-24,1806.4
3.2143e-24,1807.2
9.4825e-25,1808
9.2391e-26,1808.8
6.7107e-24,1809.6
6.0467e-24,1810.4
2.2818e-24,1811.2
8.8661e-24,1812
1.2309e-23,1812.8
3.3221e-24,1813.6
5.0566e-24,1814.4
8.6226e-25,1815.2
9.2566e-24,1816
1.0424e-24,1816.8
4.2119e-25,1817.6
7.3342e-25,1818.4
2.0537e-24,1819.2
8.3545e-25,1820
3.7631e-25,1820.8
4.5134e-25,1821.6
1.0856e-24,1822.4
4.0424e-25,1823.2
2.3313e-24,1824
2.6125e-24,1824.8
4.9746e-25,1825.6
7.4518e-25,1826.4
1.6131e-24,1827.2
3.8506e-24,1828
2.0163e-26,1828.8
2.5195e-24,1829.6
1.2577e-23,1830.4
1.9911e-23,1831.2
7.9077e-24,1832
1.2148e-24,1832.8
1.1124e-24,1833.6
8.2012e-26,1834.4
1.6249e-24,1835.2
4.2764e-25,1836
1.8488e-25,1836.8
3.3361e-24,1837.6
1.9178e-24,1838.4
8.7698e-25,1839.2
9.1261e-25,1840
1.1072e-24,1840.8
4.5119e-26,1841.6
5.3531e-25,1842.4
1.4421e-24,1843.2
3.7334e-24,1844
1.0097e-24,1844.8
7.1079e-26,1845.6
2.6357e-24,1846.4
8.2175e-25,1847.2
3.1287e-23,1848
3.0736e-23,1848.8
2.2457e-24,1849.6
3.5611e-24,1850.4
3.4146e-24,1851.2
4.7281e-24,1852
1.5133e-24,1852.8
3.2092e-24,1853.6
2.3052e-24,1854.4
1.3143e-25,1855.2
8.0976e-26,1856
2.3216e-25,1856.8
8.2927e-26,1857.6
2.2905e-24,1858.4
1.1943e-24,1859.2
9.4612e-25,1860
1.3398e-24,1860.8
1.1667e-24,1861.6
4.7812e-26,1862.4
6.9684e-25,1863.2
1.7469e-24,1864
1.8725e-24,1864.8
6.1473e-25,1865.6
1.8322e-25,1866.4
9.7801e-26,1867.2
4.0172e-25,1868
2.7317e-25,1868.8
1.2931e-24,1869.6
7.1939e-24,1870.4
3.8263e-24,1871.2
2.9195e-24,1872
3.1869e-24,1872.8
1.796e-24,1873.6
7.7632e-25,1874.4
4.532e-25,1875.2
1.3789e-26,1876
1.0174e-24,1876.8
2.5501e-25,1877.6
1.2008e-24,1878.4
4.0175e-24,1879.2
7.4558e-26,1880
1.7897e-24,1880.8
1.4153e-24,1881.6
1.7083e-24,1882.4
7.7617e-25,1883.2
3.6696e-25,1884
4.253e-25,1884.8
3.8132e-25,1885.6
2.594e-24,1886.4
3.0782e-25,1887.2
1.1372e-24,1888
3.4912e-25,1888.8
1.8624e-24,1889.6
1.1254e-24,1890.4
7.0747e-25,1891.2
1.6466e-24,1892
7.6769e-25,1892.8
2.5979e-24,1893.6
3.8787e-24,1894.4
1.3353e-24,1895.2
3.2047e-25,1896
3.3812e-24,1896.8
3.8743e-24,1897.6
3.6395e-25,1898.4
2.3612e-24,1899.2
6.1586e-25,1900
1.1808e-24,1900.8
4.5772e-25,1901.6
2.5068e-24,1902.4
2.7001e-25,1903.2
5.36e-25,1904
3.372e-24,1904.8
6.942e-24,1905.6
2.3525e-24,1906.4
2.8772e-24,1907.2
2.4456e-24,1908
1.1329e-24,1908.8
1.8164e-25,1909.6
1.0169e-24,1910.4
1.6197e-24,1911.2
1.0033e-24,1912
2.0202e-24,1912.8
4.8716e-24,1913.6
5.3285e-24,1914.4
2.6561e-24,1915.2
8.3334e-25,1916
4.4361e-24,1916.8
3.7018e-25,1917.6
8.191e-24,1918.4
1.3807e-23,1919.2
1.0729e-23,1920
2.323e-25,1920.8
5.5474e-24,1921.6
2.5751e-24,1922.4
1.6846e-24,1923.2
2.9952e-24,1924
1.29e-24,1924.8
1.133e-24,1925.6
4.0785e-24,1926.4
9.3165e-24,1927.2
2.2239e-25,1928
3.0881e-24,1928.8
1.5548e-24,1929.6
1.021e-25,1930.4
4.0464e-25,1931.2
3.766e-24,1932
1.4164e-23,1932.8
1.9505e-23,1933.6
8.5456e-24,1934.4
3.0182e-24,1935.2
1.0664e-24,1936
1.0869e-24,1936.8
7.2927e-24,1937.6
3.6324e-24,1938.4
3.327e-24,1939.2
1.0601e-24,1940
2.5741e-24,1940.8
5.5608e-24,1941.6
2.1869e-25,1942.4
8.0617e-25,1943.2
4.0736e-25,1944
1.545e-24,1944.8
1.1289e-24,1945.6
4.762e-24,1946.4
3.3368e-24,1947.2
7.2764e-25,1948
3.9161e-25,1948.8
2.2664e-24,1949.6
8.7226e-24,1950.4
1.6524e-23,1951.2
2.1069e-23,1952
5.8752e-24,1952.8
3.0477e-24,1953.6
2.2857e-24,1954.4
3.8632e-23,1955.2
1.7504e-23,1956
5.7983e-25,1956.8
1.009e-23,1957.6
5.2794e-25,1958.4
2.5691e-24,1959.2
4.6213e-24,1960
5.1402e-24,1960.8
1.3243e-24,1961.6
5.7067e-24,1962.4
1.5839e-23,1963.2
7.6642e-24,1964
1.3902e-23,1964.8
1.0781e-23,1965.6
5.4326e-24,1966.4
5.7324e-24,1967.2
4.8572e-24,1968
2.916e-23,1968.8
5.7795e-23,1969.6
2.797e-23,1970.4
1.6274e-23,1971.2
7.4973e-24,1972
1.8575e-23,1972.8
6.2248e-24,1973.6
3.4925e-23,1974.4
5.8131e-23,1975.2
3.1554e-23,1976
2.0724e-24,1976.8
9.3426e-25,1977.6
7.545e-24,1978.4
2.3459e-23,1979.2
1.5743e-24,1980
2.9586e-24,1980.8
5.6737e-24,1981.6
2.4559e-24,1982.4
1.7323e-23,1983.2
3.1476e-24,1984
1.6473e-23,1984.8
7.4569e-24,1985.6
1.671e-23,1986.4
6.0425e-23,1987.2
7.2538e-24,1988
3.2178e-23,1988.8
3.9544e-23,1989.6
2.5919e-23,1990.4
1.4751e-22,1991.2
8.6134e-24,1992
2.0367e-22,1992.8
2.8587e-22,1993.6
2.6676e-22,1994.4
3.3518e-21,1995.2
6.8475e-21,1996
4.5202e-21,1996.8
6.73e-22,1997.6
1.9773e-22,1998.4
2.9082e-22,1999.2
5.0973e-24,2000
1.1365e-22,2000.8
6.7994e-23,2001.6
1.9647e-23,2002.4
5.9054e-23,2003.2
4.3852e-24,2004
3.1202e-23,2004.8
8.7387e-24,2005.6
7.3201e-24,2006.4
1.9857e-23,2007.2
1.0037e-23,2008
3.7177e-24,2008.8
1.9062e-23,2009.6
1.2518e-23,2010.4
6.9113e-24,2011.2
2.4798e-24,2012
3.0623e-23,2012.8
6.7534e-23,2013.6
1.1533e-23,2014.4
1.1467e-23,2015.2
1.9977e-23,2016
1.4007e-23,2016.8
6.5912e-24,2017.6
2.3311e-23,2018.4
1.4689e-23,2019.2
2.2004e-24,2020
6.8194e-24,2020.8
5.0676e-24,2021.6
3.9559e-24,2022.4
2.2641e-24,2023.2
3.0064e-24,2024
5.0207e-24,2024.8
3.097e-24,2025.6
2.8262e-24,2026.4
1.5728e-23,2027.2
6.9727e-24,2028
1.118e-23,2028.8
2.47e-24,2029.6
1.0496e-23,2030.4
1.1858e-23,2031.2
2.0459e-23,2032
3.6526e-23,2032.8
2.5416e-24,2033.6
9.4386e-25,2034.4
4.9426e-24,2035.2
6.6243e-25,2036
4.2908e-23,2036.8
4.5369e-23,2037.6
4.6235e-24,2038.4
2.5086e-23,2039.2
3.0449e-24,2040
8.3599e-25,2040.8
9.3131e-24,2041.6
9.8652e-24,2042.4
8.8151e-24,2043.2
8.8227e-24,2044
4.5003e-24,2044.8
1.7754e-24,2045.6
1.2915e-23,2046.4
1.0417e-23,2047.2
1.3421e-24,2048
1.0707e-23,2048.8
4.3354e-24,2049.6
1.1763e-23,2050.4
2.9359e-23,2051.2
2.1739e-23,2052
1.655e-22,2052.8
7.2053e-23,2053.6
3.515e-23,2054.4
2.2384e-23,2055.2
8.5131e-23,2056
3.9388e-23,2056.8
6.0102e-24,2057.6
7.1919e-23,2058.4
5.0216e-23,2059.2
1.2834e-23,2060
2.8374e-24,2060.8
2.2862e-23,2061.6
9.4317e-24,2062.4
9.9421e-24,2063.2
6.4041e-24,2064
5.8133e-24,2064.8
1.232e-23,2065.6
2.9516e-24,2066.4
6.1873e-24,2067.2
4.2018e-24,2068
1.1651e-24,2068.8
1.3234e-23,2069.6
2.2852e-23,2070.4
1.141e-23,2071.2
1.0274e-23,2072
3.9835e-24,2072.8
4.5163e-24,2073.6
3.0979e-24,2074.4
4.5897e-24,2075.2
4.3264e-24,2076
1.4978e-24,2076.8
4.6179e-25,2077.6
5.5524e-24,2078.4
2.3801e-24,2079.2
5.6914e-24,2080
1.3906e-23,2080.8
1.292e-23,2081.6
5.7522e-25,2082.4
1.9205e-24,2083.2
5.0668e-24,2084
4.943e-24,2084.8
1.6194e-23,2085.6
3.0784e-24,2086.4
1.5152e-23,2087.2
2.1325e-24,2088
1.7317e-24,2088.8
4.1455e-24,2089.6
1.5081e-24,2090.4
3.9197e-25,2091.2
1.8866e-24,2092
4.1701e-24,2092.8
1.4477e-24,2093.6
9.7374e-25,2094.4
6.5556e-24,2095.2
1.6141e-24,2096
2.6598e-24,2096.8
8.5579e-25,2097.6
9.2014e-26,2098.4
8.7699e-25,2099.2
9.7475e-24,2100
4.8926e-24,2100.8
7.9724e-25,2101.6
1.7078e-24,2102.4
1.9191e-24,2103.2
6.4664e-25,2104
3.7338e-24,2104.8
3.6824e-24,2105.6
1.5369e-24,2106.4
9.4936e-25,2107.2
1.2467e-24,2108
1.6088e-24,2108.8
1.121e-24,2109.6
8.7581e-25,2110.4
2.3864e-24,2111.2
4.3113e-24,2112
4.7816e-25,2112.8
3.7355e-25,2113.6
9.1961e-25,2114.4
4.8621e-25,2115.2
5.1589e-26,2116
1.3918e-24,2116.8
1.9218e-25,2117.6
3.5933e-24,2118.4
1.869e-24,2119.2
1.1268e-23,2120
9.4016e-24,2120.8
6.8797e-25,2121.6
8.5811e-26,2122.4
8.9378e-26,2123.2
1.8963e-25,2124
1.19e-24,2124.8
2.4305e-24,2125.6
8.2596e-25,2126.4
1.1413e-24,2127.2
2.5808e-25,2128
1.9813e-25,2128.8
1.7632e-25,2129.6
3.3065e-24,2130.4
2.2664e-25,2131.2
1.362e-24,2132
2.2043e-25,2132.8
2.1635e-24,2133.6
1.6867e-24,2134.4
4.0536e-24,2135.2
4.4054e-24,2136
4.3276e-24,2136.8
5.632e-25,2137.6
6.9132e-25,2138.4
3.5945e-25,2139.2
7.9104e-24,2140
1.5121e-24,2140.8
5.7873e-26,2141.6
9.5798e-24,2142.4
1.3952e-24,2143.2
1.0933e-25,2144
2.9101e-24,2144.8
2.5798e-24,2145.6
8.6231e-25,2146.4
3.2188e-24,2147.2
3.3416e-24,2148
2.0048e-24,2148.8
2.3932e-24,2149.6
6.8749e-25,2150.4
9.3218e-27,2151.2
2.4506e-24,2152
1.037e-24,2152.8
4.5284e-24,2153.6
2.2151e-24,2154.4
2.119e-24,2155.2
6.6443e-24,2156
4.7015e-24,2156.8
4.4671e-24,2157.6
8.955e-24,2158.4
8.1252e-24,2159.2
4.9476e-23,2160
1.5833e-22,2160.8
1.1425e-22,2161.6
9.5487e-24,2162.4
4.2535e-24,2163.2
3.6052e-26,2164
3.6695e-24,2164.8
3.669e-24,2165.6
5.2315e-24,2166.4
8.6615e-25,2167.2
6.4758e-24,2168
3.5794e-24,2168.8
7.3949e-24,2169.6
2.3387e-25,2170.4
8.3247e-24,2171.2
2.4643e-24,2172
3.0427e-24,2172.8
1.6538e-23,2173.6
1.6714e-23,2174.4
1.0033e-23,2175.2
5.1005e-24,2176
2.0182e-23,2176.8
2.0858e-23,2177.6
5.494e-23,2178.4
2.474e-23,2179.2
6.2342e-24,2180
3.9857e-25,2180.8
1.1944e-23,2181.6
3.5939e-24,2182.4
1.7286e-24,2183.2
1.7507e-24,2184
2.6934e-24,2184.8
1.099e-24,2185.6
1.9525e-24,2186.4
1.1642e-24,2187.2
8.4507e-25,2188
1.1811e-24,2188.8
2.908e-24,2189.6
1.8878e-26,2190.4
2.9634e-24,2191.2
1.3207e-25,2192
1.3469e-25,2192.8
1.0714e-25,2193.6
1.0098e-24,2194.4
2.5746e-25,2195.2
1.199e-24,2196
6.2067e-24,2196.8
6.974e-24,2197.6
3.3528e-24,2198.4
1.0953e-24,2199.2
7.0931e-25,2200
1.0236e-24,2200.8
2.8072e-24,2201.6
2.5893e-24,2202.4
5.4399e-24,2203.2
5.6988e-26,2204
3.8551e-24,2204.8
2.4105e-25,2205.6
6.6153e-24,2206.4
9.7334e-25,2207.2
8.4646e-24,2208
8.8166e-24,2208.8
1.1968e-23,2209.6
1.308e-24,2210.4
1.5905e-23,2211.2
1.2383e-23,2212
1.5366e-23,2212.8
1.6327e-23,2213.6
4.1037e-23,2214.4
4.6004e-23,2215.2
2.1282e-23,2216
1.5126e-22,2216.8
1.4305e-22,2217.6
2.2597e-21,2218.4
3.6192e-21,2219.2
1.1958e-21,2220
1.1522e-23,2220.8
1.3435e-22,2221.6
2.6891e-24,2222.4
7.842e-23,2223.2
5.4962e-24,2224
5.9104e-23,2224.8
3.2946e-23,2225.6
1.4795e-23,2226.4
5.634e-23,2227.2
1.8346e-23,2228
2.3846e-23,2228.8
4.5997e-23,2229.6
2.9809e-23,2230.4
3.3363e-23,2231.2
1.2676e-23,2232
1.3934e-23,2232.8
8.8812e-24,2233.6
4.1442e-25,2234.4
4.4322e-24,2235.2
2.45e-24,2236
5.6046e-24,2236.8
2.8765e-24,2237.6
5.2132e-24,2238.4
1.1265e-23,2239.2
6.4494e-24,2240
2.2983e-24,2240.8
5.2155e-24,2241.6
3.6302e-25,2242.4
4.8688e-24,2243.2
2.6475e-24,2244
1.1975e-23,2244.8
9.6061e-24,2245.6
1.4552e-24,2246.4
6.5419e-24,2247.2
2.8288e-23,2248
4.5589e-23,2248.8
6.4093e-23,2249.6
1.0585e-22,2250.4
1.5304e-22,2251.2
1.5551e-22,2252
1.6973e-22,2252.8
1.2579e-22,2253.6
7.4899e-23,2254.4
4.1818e-23,2255.2
1.1264e-23,2256
2.2251e-24,2256.8
5.4778e-24,2257.6
1.6414e-23,2258.4
3.3445e-25,2259.2
1.1781e-23,2260
2.1004e-24,2260.8
4.0859e-24,2261.6
7.9817e-24,2262.4
8.483e-24,2263.2
2.0635e-24,2264
4.0404e-25,2264.8
4.5725e-26,2265.6
6.3217e-24,2266.4
5.9176e-24,2267.2
4.5555e-25,2268
8.3653e-25,2268.8
3.3656e-24,2269.6
2.4223e-24,2270.4
3.7665e-25,2271.2
3.0528e-24,2272
2.3818e-24,2272.8
2.5908e-25,2273.6
2.7655e-24,2274.4
1.874e-24,2275.2
4.2077e-25,2276
6.5168e-24,2276.8
1.3059e-25,2277.6
1.3282e-24,2278.4
1.5565e-24,2279.2
2.2874e-25,2280
3.1422e-24,2280.8
1.8985e-24,2281.6
1.5618e-24,2282.4
2.422e-24,2283.2
5.3263e-25,2284
2.1445e-24,2284.8
2.8521e-24,2285.6
1.0144e-24,2286.4
1.4143e-23,2287.2
1.1745e-23,2288
4.9313e-24,2288.8
2.3027e-24,2289.6
2.7262e-24,2290.4
6.385e-25,2291.2
3.1954e-24,2292
8.4889e-24,2292.8
3.5625e-24,2293.6
4.9109e-24,2294.4
1.2431e-23,2295.2
8.7066e-25,2296
4.4961e-24,2296.8
1.8376e-24,2297.6
1.0125e-23,2298.4
1.5014e-23,2299.2
2.5701e-24,2300
4.8135e-24,2300.8
1.1507e-23,2301.6
3.9792e-24,2302.4
3.6083e-24,2303.2
3.1215e-24,2304
4.7092e-25,2304.8
2.5753e-24,2305.6
1.0706e-25,2306.4
8.1889e-25,2307.2
9.7445e-25,2308
9.5293e-24,2308.8
4.2274e-24,2309.6
1.6915e-24,2310.4
5.939e-25,2311.2
6.9011e-25,2312
2.5487e-24,2312.8
4.4065e-24,2313.6
1.3189e-25,2314.4
1.1487e-24,2315.2
7.9546e-25,2316
4.0036e-25,2316.8
9.3472e-25,2317.6
1.8371e-24,2318.4
2.2643e-24,2319.2
2.514e-24,2320
2.537e-24,2320.8
3.1056e-24,2321.6
1.636e-24,2322.4
7.687e-24,2323.2
4.4203e-26,2324
1.5347e-23,2324.8
4.6203e-23,2325.6
5.8428e-23,2326.4
1.2525e-23,2327.2
3.3287e-24,2328
1.1094e-24,2328.8
3.6903e-25,2329.6
2.8531e-24,2330.4
1.2851e-24,2331.2
4.3604e-24,2332
8.9003e-25,2332.8
1.3583e-24,2333.6
1.9322e-24,2334.4
3.2346e-25,2335.2
1.0676e-24,2336
4.1218e-24,2336.8
3.8398e-24,2337.6
1.7827e-24,2338.4
3.6943e-24,2339.2
4.62e-24,2340
2.7408e-24,2340.8
1.5842e-23,2341.6
1.0923e-23,2342.4
1.2126e-23,2343.2
2.5432e-23,2344
1.6049e-23,2344.8
1.4958e-24,2345.6
1.9457e-24,2346.4
5.72e-24,2347.2
1.1221e-24,2348
7.8078e-25,2348.8
9.2675e-25,2349.6
3.167e-25,2350.4
3.0306e-25,2351.2
3.4539e-24,2352
7.8292e-26,2352.8
1.7586e-24,2353.6
3.3789e-24,2354.4
2.404e-24,2355.2
8.8353e-25,2356
5.7288e-24,2356.8
4.6929e-24,2357.6
1.6967e-25,2358.4
2.4919e-24,2359.2
1.9123e-25,2360
9.2794e-24,2360.8
8.8215e-24,2361.6
7.2136e-25,2362.4
1.1425e-24,2363.2
1.6072e-24,2364
1.0177e-25,2364.8
7.1697e-26,2365.6
1.1477e-24,2366.4
3.7983e-25,2367.2
9.1528e-25,2368
1.1121e-24,2368.8
4.7533e-25,2369.6
5.8065e-24,2370.4
2.0593e-24,2371.2
1.0007e-24,2372
1.377e-24,2372.8
3.6554e-25,2373.6
6.1525e-25,2374.4
1.9436e-25,2375.2
2.9816e-25,2376
2.8985e-25,2376.8
1.3514e-24,2377.6
5.8294e-24,2378.4
1.4283e-24,2379.2
1.0644e-23,2380
1.4703e-23,2380.8
1.6706e-23,2381.6
1.464e-23,2382.4
2.1731e-22,2383.2
6.3402e-22,2384
1.2895e-22,2384.8
1.5741e-23,2385.6
1.1237e-23,2386.4
4.7013e-25,2387.2
1.0072e-23,2388
3.7413e-24,2388.8
5.8843e-24,2389.6
2.4286e-24,2390.4
1.7578e-24,2391.2
4.4524e-24,2392
2.4039e-24,2392.8
1.755e-24,2393.6
1.6614e-24,2394.4
2.7061e-24,2395.2
1.3532e-24,2396
2.0094e-24,2396.8
2.3318e-24,2397.6
2.8644e-24,2398.4
3.5867e-24,2399.2
1.3928e-23,2400
1.2868e-23,2400.8
4.6163e-24,2401.6
6.22e-24,2402.4
1.2611e-23,2403.2
1.3371e-24,2404
2.8691e-24,2404.8
1.8581e-24,2405.6
3.4314e-24,2406.4
5.9022e-26,2407.2
2.1487e-24,2408
9.5478e-25,2408.8
9.3965e-25,2409.6
9.4223e-26,2410.4
7.8664e-25,2411.2
4.5204e-24,2412
7.3949e-25,2412.8
1.513e-24,2413.6
1.5183e-24,2414.4
9.8949e-25,2415.2
1.6917e-23,2416
1.1098e-24,2416.8
1.2694e-23,2417.6
5.8469e-25,2418.4
1.3256e-23,2419.2
1.8653e-23,2420
1.76e-25,2420.8
1.1268e-23,2421.6
3.7719e-25,2422.4
2.3374e-23,2423.2
9.8075e-24,2424
1.212e-24,2424.8
2.0802e-25,2425.6
9.0246e-26,2426.4
2.2536e-24,2427.2
3.5826e-25,2428
4.4652e-25,2428.8
4.5814e-24,2429.6
2.2101e-24,2430.4
2.5675e-27,2431.2
6.7368e-25,2432
6.8174e-26,2432.8
2.4398e-24,2433.6
4.2363e-24,2434.4
4.9951e-24,2435.2
2.7733e-24,2436
1.6958e-24,2436.8
1.9899e-24,2437.6
8.2943e-24,2438.4
5.8645e-24,2439.2
4.5367e-24,2440
5.6032e-24,2440.8
2.3911e-23,2441.6
5.1729e-24,2442.4
1.41e-23,2443.2
1.0109e-23,2444
8.3814e-24,2444.8
2.4477e-24,2445.6
7.3262e-25,2446.4
2.8277e-24,2447.2
7.4958e-24,2448
1.2602e-24,2448.8
1.1363e-23,2449.6
2.0596e-24,2450.4
5.1322e-24,2451.2
2.5089e-24,2452
1.0175e-24,2452.8
6.0234e-24,2453.6
1.2523e-24,2454.4
2.1738e-24,2455.2
7.4686e-25,2456
1.5547e-24,2456.8
2.348e-24,2457.6
6.8659e-25,2458.4
1.6894e-24,2459.2
2.461e-24,2460
5.8711e-26,2460.8
4.3496e-24,2461.6
6.2604e-24,2462.4
7.4084e-25,2463.2
2.9323e-24,2464
2.3242e-24,2464.8
7.9276e-25,2465.6
3.2209e-25,2466.4
1.8736e-24,2467.2
2.6533e-24,2468
4.9527e-26,2468.8
2.3557e-23,2469.6
6.3774e-24,2470.4
5.2195e-24,2471.2
2.2977e-24,2472
2.4725e-23,2472.8
3.4721e-24,2473.6
4.292e-23,2474.4
1.5162e-25,2475.2
4.5566e-24,2476
3.316e-25,2476.8
7.9658e-24,2477.6
2.4805e-23,2478.4
1.4881e-23,2479.2
1.5211e-24,2480
3.906e-23,2480.8
1.3551e-22,2481.6
6.2862e-22,2482.4
6.2607e-24,2483.2
1.2702e-22,2484
2.6029e-23,2484.8
5.2883e-22,2485.6
1.801e-22,2486.4
1.0662e-22,2487.2
9.6559e-23,2488
1.2311e-22,2488.8
9.1957e-23,2489.6
1.2693e-22,2490.4
1.1055e-24,2491.2
7.6342e-25,2492
4.4786e-24,2492.8
2.0747e-24,2493.6
5.752e-24,2494.4
4.9922e-23,2495.2
3.9722e-23,2496
8.9605e-23,2496.8
2.5982e-23,2497.6
7.1952e-23,2498.4
9.501e-26,2499.2
1.7425e-24,2500
4.5041e-24,2500.8
2.852e-23,2501.6
2.9956e-24,2502.4
2.3329e-22,2503.2
2.8186e-22,2504
6.5531e-22,2504.8
1.4434e-22,2505.6
1.3635e-21,2506.4
1.7286e-22,2507.2
5.0785e-22,2508
2.9416e-22,2508.8
4.8498e-22,2509.6
1.7621e-23,2510.4
3.2895e-22,2511.2
1.4489e-22,2512
1.6154e-22,2512.8
1.1611e-23,2513.6
2.4585e-23,2514.4
7.2752e-26,2515.2
4.6841e-24,2516
1.106e-23,2516.8
2.7181e-23,2517.6
3.724e-24,2518.4
3.1909e-23,2519.2
2.6028e-23,2520
1.2245e-23,2520.8
1.0998e-24,2521.6
5.4408e-24,2522.4
6.4041e-25,2523.2
1.0951e-25,2524
5.9016e-25,2524.8
4.9541e-24,2525.6
1.0976e-24,2526.4
8.2213e-24,2527.2
1.8894e-24,2528
7.6743e-24,2528.8
2.6443e-24,2529.6
7.027e-24,2530.4
9.1174e-24,2531.2
1.0445e-23,2532
3.906e-24,2532.8
2.4814e-24,2533.6
2.6302e-24,2534.4
9.8483e-24,2535.2
3.5567e-24,2536
5.4944e-25,2536.8
6.2643e-25,2537.6
1.1416e-24,2538.4
1.6581e-24,2539.2
1.4082e-24,2540
3.1234e-24,2540.8
7.1773e-24,2541.6
2.8754e-24,2542.4
6.4422e-24,2543.2
3.6645e-23,2544
4.9984e-23,2544.8
2.5448e-24,2545.6
3.4255e-23,2546.4
1.6772e-23,2547.2
1.394e-22,2548
4.5167e-23,2548.8
5.8778e-23,2549.6
4.9666e-23,2550.4
5.3114e-24,2551.2
6.1292e-23,2552
1.9033e-23,2552.8
2.5602e-24,2553.6
9.392e-24,2554.4
8.2445e-25,2555.2
2.7213e-24,2556
1.691e-23,2556.8
1.76e-23,2557.6
5.2943e-24,2558.4
5.0233e-24,2559.2
9.3177e-24,2560
5.2727e-24,2560.8
3.8436e-25,2561.6
5.1134e-25,2562.4
6.3467e-24,2563.2
3.3452e-23,2564
3.706e-23,2564.8
2.6944e-23,2565.6
1.3974e-23,2566.4
2.1056e-23,2567.2
2.0628e-23,2568
7.408e-24,2568.8
2.1134e-24,2569.6
1.8296e-25,2570.4
1.8875e-24,2571.2
1.3437e-23,2572
2.8708e-24,2572.8
5.7385e-24,2573.6
1.5069e-23,2574.4
3.9064e-25,2575.2
8.8534e-24,2576
2.9189e-24,2576.8
5.8299e-24,2577.6
1.5096e-24,2578.4
3.3208e-26,2579.2
2.3005e-24,2580
4.0014e-25,2580.8
9.0832e-24,2581.6
2.8115e-24,2582.4
1.1987e-24,2583.2
1.26e-24,2584
2.8485e-25,2584.8
7.4908e-25,2585.6
1.558e-24,2586.4
2.145e-24,2587.2
2.2729e-24,2588
2.1149e-25,2588.8
7.0868e-24,2589.6
1.3009e-25,2590.4
1.2649e-24,2591.2
1.1369e-23,2592
2.753e-25,2592.8
6.187e-25,2593.6
4.6183e-25,2594.4
1.7202e-24,2595.2
7.3758e-25,2596
3.4496e-25,2596.8
6.5046e-25,2597.6
4.3622e-24,2598.4
3.1958e-24,2599.2
7.8384e-24,2600
2.0746e-25,2600.8
1.7497e-24,2601.6
1.6875e-24,2602.4
2.3564e-24,2603.2
8.6777e-24,2604
1.2369e-23,2604.8
6.8424e-24,2605.6
3.7474e-24,2606.4
2.286e-23,2607.2
1.0096e-24,2608
5.5205e-25,2608.8
7.8593e-24,2609.6
8.9728e-24,2610.4
7.8811e-24,2611.2
9.4628e-24,2612
2.9191e-24,2612.8
6.4079e-24,2613.6
3.7753e-24,2614.4
3.1111e-24,2615.2
2.3243e-24,2616
8.218e-25,2616.8
2.698e-24,2617.6
9.6221e-25,2618.4
1.8238e-27,2619.2
1.0193e-24,2620
1.0515e-24,2620.8
1.0299e-24,2621.6
9.0018e-25,2622.4
2.8032e-24,2623.2
3.944e-25,2624
1.8126e-24,2624.8
3.0763e-24,2625.6
1.641e-24,2626.4
9.7564e-26,2627.2
1.9338e-24,2628
1.9677e-25,2628.8
1.1225e-24,2629.6
1.0539e-24,2630.4
3.524e-24,2631.2
1.3528e-24,2632
3.6273e-24,2632.8
1.6025e-24,2633.6
9.0756e-24,2634.4
8.3621e-25,2635.2
9.8453e-24,2636
1.0322e-23,2636.8
1.0541e-24,2637.6
1.4014e-23,2638.4
9.0638e-24,2639.2
1.1367e-24,2640
8.1756e-24,2640.8
3.3863e-24,2641.6
1.6441e-23,2642.4
7.8874e-24,2643.2
2.8823e-24,2644
7.1845e-25,2644.8
6.2445e-25,2645.6
2.2393e-25,2646.4
5.7586e-24,2647.2
7.3345e-24,2648
2.3213e-25,2648.8
1.9995e-25,2649.6
1.9911e-24,2650.4
1.9682e-24,2651.2
3.7452e-24,2652
7.2673e-25,2652.8
2.1105e-24,2653.6
2.9893e-24,2654.4
8.617e-25,2655.2
1.4131e-24,2656
8.4657e-25,2656.8
3.0018e-25,2657.6
8.6283e-26,2658.4
1.5305e-25,2659.2
2.9814e-25,2660
1.3898e-24,2660.8
1.7361e-24,2661.6
1.1451e-24,2662.4
9.1572e-25,2663.2
5.1732e-25,2664
2.8913e-25,2664.8
6.2754e-26,2665.6
2.1498e-24,2666.4
4.9701e-24,2667.2
3.7514e-24,2668
2.8444e-24,2668.8
4.6818e-24,2669.6
3.3415e-24,2670.4
2.3654e-23,2671.2
7.5286e-24,2672
8.4907e-24,2672.8
5.3329e-24,2673.6
4.7234e-25,2674.4
4.8272e-24,2675.2
2.9086e-25,2676
1.6072e-24,2676.8
2.7462e-25,2677.6
3.5174e-24,2678.4
1.3343e-24,2679.2
2.8313e-24,2680
1.2204e-24,2680.8
4.9365e-24,2681.6
1.1332e-23,2682.4
6.3482e-24,2683.2
7.1975e-25,2684
2.1979e-24,2684.8
1.1932e-24,2685.6
5.8844e-25,2686.4
3.7674e-25,2687.2
1.9492e-24,2688
3.7644e-24,2688.8
1.5287e-24,2689.6
1.2632e-24,2690.4
5.2015e-25,2691.2
1.6142e-24,2692
1.4652e-24,2692.8
9.6553e-25,2693.6
2.4223e-24,2694.4
1.3196e-24,2695.2
9.0945e-24,2696
2.1032e-23,2696.8
8.9904e-24,2697.6
1.4469e-23,2698.4
4.1286e-24,2699.2
2.1865e-24,2700
2.6827e-24,2700.8
5.9359e-24,2701.6
3.3168e-24,2702.4
1.3046e-23,2703.2
1.3258e-23,2704
9.8053e-24,2704.8
3.1659e-24,2705.6
9.3566e-26,2706.4
5.0335e-25,2707.2
2.5182e-24,2708
4.4223e-24,2708.8
4.1233e-25,2709.6
8.8569e-25,2710.4
8.4114e-25,2711.2
3.8577e-24,2712
1.9931e-24,2712.8
1.0075e-24,2713.6
2.1901e-24,2714.4
3.992e-24,2715.2
3.2203e-25,2716
5.8464e-25,2716.8
1.1474e-24,2717.6
2.5602e-24,2718.4
2.5498e-24,2719.2
2.4758e-24,2720
2.2673e-24,2720.8
4.0041e-24,2721.6
2.3684e-25,2722.4
9.4106e-27,2723.2
1.3892e-24,2724
1.0899e-23,2724.8
4.1542e-24,2725.6
2.7564e-25,2726.4
8.8968e-25,2727.2
9.8491e-24,2728
3.0735e-23,2728.8
5.1387e-23,2729.6
1.5576e-23,2730.4
6.2878e-24,2731.2
2.5118e-23,2732
1.7674e-24,2732.8
3.5943e-24,2733.6
2.1895e-24,2734.4
3.0343e-24,2735.2
5.3537e-24,2736
7.1802e-24,2736.8
3.6385e-23,2737.6
8.5751e-23,2738.4
7.6382e-23,2739.2
1.4419e-22,2740
1.8432e-22,2740.8
1.0598e-22,2741.6
5.2784e-23,2742.4
4.1888e-23,2743.2
2.6404e-23,2744
6.8695e-24,2744.8
9.8124e-24,2745.6
1.4178e-23,2746.4
6.281e-24,2747.2
7.8846e-24,2748
5.5146e-24,2748.8
1.5324e-23,2749.6
5.0189e-25,2750.4
3.175e-24,2751.2
8.7924e-24,2752
3.9503e-24,2752.8
9.4082e-25,2753.6
5.904e-25,2754.4
9.9992e-24,2755.2
2.3758e-24,2756
5.8365e-24,2756.8
1.3223e-23,2757.6
3.3021e-24,2758.4
2.8595e-24,2759.2
1.7812e-23,2760
3.6475e-23,2760.8
4.7165e-23,2761.6
1.0057e-22,2762.4
1.2438e-22,2763.2
8.9463e-23,2764
9.0829e-23,2764.8
3.9506e-23,2765.6
2.1989e-23,2766.4
7.8027e-24,2767.2
1.7054e-24,2768
2.4485e-25,2768.8
1.3144e-23,2769.6
1.1675e-23,2770.4
8.495e-24,2771.2
6.2795e-23,2772
1.4709e-23,2772.8
4.6178e-23,2773.6
1.2276e-22,2774.4
2.6909e-23,2775.2
9.4252e-24,2776
1.8217e-23,2776.8
8.9847e-24,2777.6
8.6959e-24,2778.4
1.3057e-24,2779.2
4.7694e-24,2780
8.72e-24,2780.8
1.6639e-24,2781.6
7.8177e-25,2782.4
1.9471e-24,2783.2
1.1281e-25,2784
2.365e-24,2784.8
6.5102e-24,2785.6
4.2906e-24,2786.4
7.1324e-26,2787.2
4.1827e-24,2788
8.553e-24,2788.8
1.6996e-23,2789.6
1.1447e-23,2790.4
1.2313e-23,2791.2
4.3949e-24,2792
9.1804e-25,2792.8
9.0429e-25,2793.6
4.1607e-24,2794.4
3.7575e-24,2795.2
5.8244e-24,2796
1.0464e-24,2796.8
2.5336e-24,2797.6
8.4571e-24,2798.4
1.5863e-23,2799.2
4.2523e-24,2800
5.1267e-24,2800.8
2.6892e-24,2801.6
7.3184e-25,2802.4
2.02e-23,2803.2
9.1982e-24,2804
5.1707e-24,2804.8
5.4691e-24,2805.6
6.3845e-24,2806.4
1.9754e-24,2807.2
1.246e-24,2808
2.5311e-24,2808.8
5.52e-24,2809.6
5.8749e-24,2810.4
4.1419e-24,2811.2
8.4269e-24,2812
1.449e-23,2812.8
5.8406e-24,2813.6
1.2324e-23,2814.4
3.148e-24,2815.2
2.0587e-24,2816
2.3628e-24,2816.8
6.9824e-25,2817.6
2.1643e-24,2818.4
1.896e-24,2819.2
5.215e-24,2820
9.0833e-25,2820.8
4.5132e-24,2821.6
2.5129e-24,2822.4
2.3594e-25,2823.2
3.0447e-25,2824
8.6508e-24,2824.8
2.6118e-24,2825.6
9.4339e-25,2826.4
3.7088e-25,2827.2
1.3096e-24,2828
2.9561e-24,2828.8
4.9395e-26,2829.6
1.355e-23,2830.4
5.3656e-23,2831.2
3.7857e-23,2832
4.5418e-24,2832.8
1.7102e-25,2833.6
1.1888e-24,2834.4
2.611e-24,2835.2
1.7915e-24,2836
1.2958e-24,2836.8
4.0036e-25,2837.6
4.1541e-25,2838.4
1.298e-25,2839.2
1.0658e-24,2840
1.1975e-24,2840.8
3.5135e-25,2841.6
3.9898e-26,2842.4
4.133e-25,2843.2
3.7938e-24,2844
6.4905e-25,2844.8
7.3596e-25,2845.6
1.9877e-24,2846.4
3.6761e-24,2847.2
2.9366e-23,2848
2.2365e-23,2848.8
1.4429e-24,2849.6
7.9762e-25,2850.4
3.303e-24,2851.2
1.7041e-24,2852
1.0214e-24,2852.8
2.0214e-25,2853.6
4.3877e-25,2854.4
2.7164e-25,2855.2
2.0579e-25,2856
8.8629e-25,2856.8
2.5707e-25,2857.6
2.6276e-24,2858.4
1.0301e-24,2859.2
7.6284e-25,2860
1.7228e-24,2860.8
4.4982e-24,2861.6
6.6404e-26,2862.4
1.2262e-24,2863.2
1.4068e-24,2864
7.9751e-25,2864.8
1.3858e-24,2865.6
1.6523e-26,2866.4
1.398e-24,2867.2
1.2367e-24,2868
9.4813e-25,2868.8
1.2093e-24,2869.6
5.2796e-24,2870.4
1.9955e-24,2871.2
3.698e-24,2872
8.0194e-24,2872.8
2.6234e-25,2873.6
2.2335e-25,2874.4
1.7755e-24,2875.2
4.1415e-24,2876
2.4941e-24,2876.8
2.193e-24,2877.6
2.6373e-24,2878.4
5.3286e-24,2879.2
8.9698e-25,2880
9.6366e-25,2880.8
4.4229e-24,2881.6
1.0025e-24,2882.4
2.995e-24,2883.2
3.5357e-25,2884
1.811e-25,2884.8
2.2222e-24,2885.6
4.1973e-25,2886.4
2.6931e-24,2887.2
8.9389e-25,2888
2.5392e-24,2888.8
4.767e-25,2889.6
1.2654e-24,2890.4
2.6755e-24,2891.2
1.4358e-25,2892
1.0303e-24,2892.8
4.3241e-24,2893.6
2.9446e-24,2894.4
1.6597e-24,2895.2
6.045e-24,2896
2.7598e-24,2896.8
1.7797e-25,2897.6
6.2033e-25,2898.4
1.1388e-24,2899.2
1.946e-24,2900
8.1264e-25,2900.8
6.0503e-25,2901.6
4.7576e-25,2902.4
1.766e-24,2903.2
8.178e-25,2904
1.7248e-24,2904.8
5.8753e-24,2905.6
1.8607e-24,2906.4
3.3916e-28,2907.2
2.7196e-24,2908
1.0519e-25,2908.8
3.171e-25,2909.6
1.6834e-25,2910.4
4.7798e-25,2911.2
2.7589e-24,2912
4.6805e-24,2912.8
8.9832e-24,2913.6
8.6131e-24,2914.4
4.7246e-24,2915.2
5.1029e-24,2916
1.3601e-24,2916.8
4.9695e-25,2917.6
6.9079e-24,2918.4
9.6841e-25,2919.2
5.078e-24,2920
1.262e-23,2920.8
4.5207e-24,2921.6
2.2344e-24,2922.4
6.8266e-25,2923.2
1.0289e-23,2924
1.0809e-23,2924.8
1.1452e-24,2925.6
5.1443e-24,2926.4
6.8561e-24,2927.2
6.2989e-24,2928
1.912e-24,2928.8
3.7988e-24,2929.6
4.379e-24,2930.4
7.6032e-24,2931.2
4.3601e-24,2932
8.6742e-24,2932.8
6.8608e-23,2933.6
2.1732e-23,2934.4
1.3562e-23,2935.2
1.2034e-23,2936
3.4142e-22,2936.8
5.7611e-22,2937.6
5.1273e-23,2938.4
2.6046e-22,2939.2
1.8445e-22,2940
1.8217e-23,2940.8
2.4936e-24,2941.6
3.9453e-23,2942.4
2.6234e-23,2943.2
4.3974e-24,2944
4.3956e-24,2944.8
2.3897e-23,2945.6
1.7293e-24,2946.4
3.1007e-23,2947.2
1.2086e-23,2948
2.1395e-24,2948.8
1.7338e-23,2949.6
2.2081e-24,2950.4
4.2994e-24,2951.2
4.9911e-25,2952
1.2323e-23,2952.8
8.2417e-24,2953.6
2.863e-23,2954.4
3.865e-23,2955.2
2.0256e-23,2956
6.4153e-23,2956.8
3.9382e-23,2957.6
4.4775e-24,2958.4
1.9231e-24,2959.2
1.7716e-24,2960
8.4028e-25,2960.8
3.6955e-25,2961.6
3.6529e-24,2962.4
3.667e-25,2963.2
1.2499e-24,2964
3.5928e-24,2964.8
4.9594e-26,2965.6
2.3967e-25,2966.4
8.9577e-25,2967.2
3.973e-24,2968
3.9966e-24,2968.8
4.7525e-24,2969.6
9.6938e-25,2970.4
4.1319e-25,2971.2
4.0905e-25,2972
5.6509e-24,2972.8
8.3858e-25,2973.6
2.8248e-24,2974.4
2.49e-24,2975.2
2.4527e-24,2976
6.7741e-24,2976.8
5.5288e-24,2977.6
5.1575e-24,2978.4
7.3356e-24,2979.2
2.2261e-24,2980
8.1723e-24,2980.8
3.5604e-24,2981.6
7.9836e-24,2982.4
5.9399e-24,2983.2
5.9924e-25,2984
2.2124e-23,2984.8
2.4179e-23,2985.6
1.4268e-23,2986.4
5.1041e-23,2987.2
3.2901e-24,2988
3.4939e-23,2988.8
2.8649e-23,2989.6
2.0842e-23,2990.4
9.9742e-23,2991.2
4.7469e-24,2992
1.8829e-22,2992.8
2.8638e-22,2993.6
2.8244e-22,2994.4
3.2786e-21,2995.2
6.6539e-21,2996
4.4689e-21,2996.8
7.2196e-22,2997.6
1.5529e-22,2998.4
3.5118e-22,2999.2
6.1915e-24,3000
1.0469e-22,3000.8
1.0443e-22,3001.6
1.3017e-23,3002.4
6.4513e-23,3003.2
5.9348e-24,3004
4.0571e-23,3004.8
1.0167e-23,3005.6
5.0983e-24,3006.4
3.1559e-23,3007.2
5.9898e-24,3008
3.8281e-24,3008.8
2.5184e-23,3009.6
7.412e-24,3010.4
1.5197e-23,3011.2
1.6863e-23,3012
3.224e-23,3012.8
4.8563e-23,3013.6
8.3889e-24,3014.4
1.7613e-23,3015.2
2.0119e-23,3016
1.8761e-23,3016.8
8.94e-23,3017.6
2.5098e-23,3018.4
2.5898e-23,3019.2
5.8021e-23,3020
3.6789e-23,3020.8
1.0032e-23,3021.6
1.4183e-24,3022.4
2.3308e-24,3023.2
2.734e-24,3024
3.5578e-24,3024.8
4.2961e-25,3025.6
1.9572e-24,3026.4
2.654e-24,3027.2
6.7161e-25,3028
6.0819e-24,3028.8
8.547e-24,3029.6
1.1069e-23,3030.4
1.5379e-23,3031.2
5.7183e-25,3032
4.3581e-24,3032.8
5.1452e-25,3033.6
7.808e-24,3034.4
3.4089e-24,3035.2
1.1584e-24,3036
5.1131e-25,3036.8
3.6932e-24,3037.6
1.7264e-24,3038.4
6.0524e-24,3039.2
2.433e-25,3040
3.7184e-24,3040.8
4.3614e-24,3041.6
5.3186e-24,3042.4
1.7235e-24,3043.2
5.4975e-24,3044
1.0914e-25,3044.8
1.186e-24,3045.6
2.3207e-25,3046.4
3.2075e-24,3047.2
2.2944e-25,3048
6.6352e-24,3048.8
7.691e-25,3049.6
1.8834e-24,3050.4
2.4956e-24,3051.2
1.045e-24,3052
3.9117e-24,3052.8
2.833e-24,3053.6
1.5071e-24,3054.4
1.5784e-25,3055.2
2.6252e-24,3056
2.7202e-24,3056.8
9.4503e-24,3057.6
1.6576e-23,3058.4
6.3505e-24,3059.2
5.2973e-24,3060
3.9497e-24,3060.8
2.3484e-24,3061.6
5.5728e-24,3062.4
6.8759e-24,3063.2
1.1455e-24,3064
6.1371e-24,3064.8
3.3983e-24,3065.6
1.1373e-25,3066.4
3.7329e-25,3067.2
2.5041e-24,3068
9.2987e-26,3068.8
2.7676e-26,3069.6
5.3526e-25,3070.4
8.722e-27,3071.2
1.1202e-24,3072
3.921e-24,3072.8
4.6498e-24,3073.6
7.9187e-24,3074.4
8.1234e-24,3075.2
3.7602e-24,3076
7.1596e-24,3076.8
1.3708e-26,3077.6
8.1128e-24,3078.4
4.6686e-24,3079.2
1.6094e-23,3080
1.4581e-23,3080.8
2.2895e-24,3081.6
2.4976e-24,3082.4
1.3054e-24,3083.2
2.5787e-24,3084
8.4669e-25,3084.8
5.9709e-25,3085.6
3.2878e-24,3086.4
6.7135e-24,3087.2
2.2266e-24,3088
5.3666e-25,3088.8
6.8107e-25,3089.6
4.2971e-25,3090.4
2.5114e-24,3091.2
7.9849e-25,3092
1.2686e-24,3092.8
4.0811e-24,3093.6
3.5287e-24,3094.4
7.9376e-24,3095.2
2.6285e-24,3096
7.1149e-24,3096.8
4.346e-24,3097.6
1.2595e-24,3098.4
1.0083e-24,3099.2
8.6287e-24,3100
6.8064e-24,3100.8
6.1946e-24,3101.6
1.1521e-22,3102.4
2.0912e-22,3103.2
8.2814e-23,3104
3.1026e-24,3104.8
8.9926e-24,3105.6
1.1811e-24,3106.4
1.4737e-23,3107.2
4.8366e-24,3108
4.9333e-24,3108.8
4.1504e-24,3109.6
1.1744e-24,3110.4
3.2487e-24,3111.2
2.3238e-24,3112
1.4466e-24,3112.8
4.4553e-25,3113.6
2.4542e-25,3114.4
1.0264e-24,3115.2
1.499e-24,3116
4.7442e-25,3116.8
1.4886e-24,3117.6
1.454e-25,3118.4
4.0377e-25,3119.2
6.5803e-24,3120
8.7234e-24,3120.8
6.1604e-25,3121.6
1.9098e-24,3122.4
2.3982e-25,3123.2
1.1293e-25,3124
1.205e-24,3124.8
1.0067e-24,3125.6
6.2309e-25,3126.4
3.5556e-24,3127.2
2.6047e-25,3128
3.2017e-24,3128.8
1.3032e-25,3129.6
1.8042e-24,3130.4
3.2067e-24,3131.2
1.2076e-24,3132
1.1501e-24,3132.8
1.534e-24,3133.6
1.4013e-24,3134.4
2.0134e-24,3135.2
4.5087e-25,3136
9.5176e-25,3136.8
8.2259e-25,3137.6
3.7624e-24,3138.4
6.9741e-24,3139.2
2.4409e-24,3140
2.8321e-24,3140.8
1.2985e-24,3141.6
8.7955e-24,3142.4
2.3111e-25,3143.2
6.4013e-25,3144
7.0808e-24,3144.8
2.08e-24,3145.6
4.5378e-26,3146.4
7.2491e-24,3147.2
7.0352e-24,3148
9.5724e-25,3148.8
3.967e-24,3149.6
2.531e-25,3150.4
1.1801e-24,3151.2
3.2116e-25,3152
5.0022e-25,3152.8
3.3102e-24,3153.6
3.2039e-24,3154.4
5.4675e-24,3155.2
2.1602e-23,3156
3.8028e-24,3156.8
1.4236e-23,3157.6
1.2955e-23,3158.4
3.2001e-23,3159.2
5.8081e-23,3160
1.7647e-22,3160.8
1.2449e-22,3161.6
2.1873e-23,3162.4
2.8347e-24,3163.2
8.8778e-25,3164
3.7519e-25,3164.8
3.1501e-24,3165.6
2.1608e-24,3166.4
1.8877e-24,3167.2
9.9025e-24,3168
2.5296e-24,3168.8
1.0459e-24,3169.6
1.7211e-25,3170.4
7.4889e-25,3171.2
4.4095e-26,3172
5.8691e-24,3172.8
8.4074e-24,3173.6
1.049e-23,3174.4
6.2108e-24,3175.2
4.6117e-24,3176
1.2388e-23,3176.8
2.2196e-23,3177.6
5.1738e-23,3178.4
2.4297e-23,3179.2
2.0296e-23,3180
4.9126e-24,3180.8
1.1055e-23,3181.6
1.5098e-23,3182.4
3.7986e-24,3183.2
3.8307e-24,3184
1.9119e-24,3184.8
1.2985e-24,3185.6
2.0608e-24,3186.4
1.0137e-24,3187.2
2.8926e-24,3188
5.5004e-26,3188.8
2.0035e-24,3189.6
4.5364e-25,3190.4
6.1879e-25,3191.2
5.0584e-25,3192
4.5548e-25,3192.8
3.2826e-26,3193.6
5.0263e-24,3194.4
9.5103e-25,3195.2
8.9921e-26,3196
2.0516e-24,3196.8
3.9964e-24,3197.6
1.9208e-24,3198.4
2.6856e-24,3199.2
6.6853e-24,3200
5.67e-24,3200.8
2.3248e-23,3201.6
9.2031e-24,3202.4
5.9544e-25,3203.2
1.5187e-25,3204
9.825e-24,3204.8
2.5065e-23,3205.6
1.7543e-24,3206.4
2.7224e-24,3207.2
1.0724e-23,3208
1.6379e-24,3208.8
1.0105e-23,3209.6
7.2602e-24,3210.4
7.7754e-24,3211.2
4.1534e-24,3212
1.6985e-24,3212.8
3.6023e-25,3213.6
5.7983e-24,3214.4
1.1628e-23,3215.2
1.12e-23,3216
3.3181e-24,3216.8
9.0629e-24,3217.6
6.2629e-24,3218.4
3.4784e-24,3219.2
6.2902e-24,3220
1.4007e-24,3220.8
1.7876e-24,3221.6
2.2008e-24,3222.4
1.0045e-24,3223.2
2.173e-25,3224
8.0128e-25,3224.8
4.4644e-24,3225.6
1.2379e-25,3226.4
9.3358e-26,3227.2
9.8528e-27,3228
4.4544e-25,3228.8
2.997e-24,3229.6
1.5192e-24,3230.4
1.3003e-24,3231.2
1.0903e-26,3232
1.9956e-24,3232.8
4.4902e-24,3233.6
1.0852e-24,3234.4
6.1712e-25,3235.2
6.9748e-25,3236
1.4158e-24,3236.8
4.2121e-24,3237.6
2.5585e-24,3238.4
1.7951e-24,3239.2
3.041e-25,3240
4.7654e-24,3240.8
7.5125e-24,3241.6
7.5564e-25,3242.4
1.3312e-25,3243.2
2.5053e-25,3244
8.9842e-24,3244.8
8.8797e-24,3245.6
5.4422e-24,3246.4
1.4199e-23,3247.2
2.0867e-23,3248
4.4741e-23,3248.8
7.532e-23,3249.6
1.2444e-22,3250.4
1.5388e-22,3251.2
1.6319e-22,3252
1.5852e-22,3252.8
1.0422e-22,3253.6
6.6252e-23,3254.4
3.2229e-23,3255.2
1.7634e-23,3256
2.1118e-24,3256.8
2.3741e-24,3257.6
8.5647e-24,3258.4
1.045e-27,3259.2
5.35e-24,3260
3.4627e-24,3260.8
1.6629e-24,3261.6
9.6314e-24,3262.4
1.3333e-23,3263.2
2.4953e-24,3264
1.1748e-25,3264.8
5.7248e-24,3265.6
2.1784e-23,3266.4
2.0302e-23,3267.2
2.6879e-22,3268
8.4488e-25,3268.8
6.0837e-24,3269.6
2.4404e-24,3270.4
1.0262e-23,3271.2
2.4478e-23,3272
5.8666e-24,3272.8
1.9804e-23,3273.6
1.7069e-23,3274.4
1.587e-23,3275.2
7.5318e-24,3276
2.4322e-23,3276.8
1.7981e-23,3277.6
2.8614e-24,3278.4
5.5581e-24,3279.2
8.6252e-24,3280
9.9868e-24,3280.8
1.0894e-23,3281.6
5.5786e-24,3282.4
2.1361e-23,3283.2
1.1135e-22,3284
2.5496e-22,3284.8
1.6794e-22,3285.6
2.3645e-23,3286.4
1.0037e-23,3287.2
1.3786e-23,3288
1.3795e-24,3288.8
2.7546e-24,3289.6
2.6667e-24,3290.4
1.5466e-24,3291.2
2.2953e-24,3292
4.4497e-25,3292.8
8.9774e-25,3293.6
2.7872e-25,3294.4
3.1586e-24,3295.2
5.8479e-25,3296
2.0947e-25,3296.8
5.4336e-25,3297.6
2.7251e-25,3298.4
1.5619e-25,3299.2
8.5119e-25,3300
9.2089e-26,3300.8
6.854e-25,3301.6
7.1976e-25,3302.4
2.8915e-25,3303.2
1.634e-25,3304
1.4318e-24,3304.8
2.4474e-25,3305.6
1.0494e-24,3306.4
1.1767e-24,3307.2
1.6911e-24,3308
5.6449e-24,3308.8
5.3534e-24,3309.6
8.4651e-25,3310.4
1.0009e-24,3311.2
1.0708e-24,3312
3.0348e-24,3312.8
4.1014e-24,3313.6
1.6831e-25,3314.4
3.7065e-25,3315.2
1.3365e-25,3316
1.4741e-25,3316.8
7.122e-26,3317.6
1.5487e-24,3318.4
1.5344e-25,3319.2
1.2362e-24,3320
5.6374e-25,3320.8
2.2667e-25,3321.6
1.7197e-24,3322.4
9.3302e-24,3323.2
7.4509e-25,3324
8.7957e-24,3324.8
4.1017e-23,3325.6
4.2853e-23,3326.4
8.3078e-24,3327.2
1.4002e-24,3328
4.805e-25,3328.8
1.6322e-24,3329.6
7.7479e-25,3330.4
7.4772e-25,3331.2
7.3978e-24,3332
5.4639e-24,3332.8
1.2477e-24,3333.6
2.559e-24,3334.4
2.748e-24,3335.2
4.3706e-25,3336
3.6575e-24,3336.8
1.6503e-24,3337.6
4.5348e-24,3338.4
2.2748e-24,3339.2
8.0886e-24,3340
3.1731e-24,3340.8
6.8467e-24,3341.6
1.4581e-23,3342.4
3.2163e-23,3343.2
1.087e-23,3344
5.7755e-24,3344.8
1.4585e-23,3345.6
7.2374e-25,3346.4
7.5362e-25,3347.2
1.5021e-24,3348
1.0313e-24,3348.8
2.9714e-24,3349.6
5.8122e-25,3350.4
9.0285e-25,3351.2
8.4063e-25,3352
5.2473e-25,3352.8
8.7863e-26,3353.6
1.2221e-24,3354.4
1.047e-24,3355.2
1.6468e-24,3356
5.5814e-26,3356.8
9.0956e-25,3357.6
1.1265e-24,3358.4
1.3324e-24,3359.2
5.0655e-25,3360
1.2428e-24,3360.8
1.986e-24,3361.6
6.6636e-25,3362.4
5.8576e-25,3363.2
8.3182e-25,3364
2.1608e-24,3364.8
3.3865e-25,3365.6
5.9938e-25,3366.4
1.596e-24,3367.2
1.2821e-24,3368
7.2573e-25,3368.8
1.0634e-24,3369.6
1.0336e-24,3370.4
7.3286e-26,3371.2
1.119e-26,3372
4.0314e-25,3372.8
1.1803e-24,3373.6
2.8435e-25,3374.4
5.1607e-25,3375.2
9.1445e-25,3376
1.4105e-25,3376.8
4.6279e-25,3377.6
3.6293e-25,3378.4
1.409e-24,3379.2
1.7974e-24,3380
1.0717e-24,3380.8
2.4695e-24,3381.6
2.3875e-25,3382.4
1.3721e-24,3383.2
3.5415e-24,3384
2.3709e-25,3384.8
1.0684e-25,3385.6
1.1472e-24,3386.4
9.5946e-25,3387.2
1.6154e-24,3388
2.6802e-24,3388.8
4.367e-25,3389.6
1.5348e-24,3390.4
8.8902e-26,3391.2
3.1794e-24,3392
1.9864e-24,3392.8
3.8327e-24,3393.6
3.5408e-24,3394.4
2.556e-25,3395.2
2.0259e-24,3396
2.0471e-25,3396.8
2.8073e-24,3397.6
3.0384e-25,3398.4
1.683e-24,3399.2
6.1014e-24,3400
4.24e-24,3400.8
1.1328e-25,3401.6
2.3361e-23,3402.4
7.5402e-25,3403.2
1.1475e-23,3404
1.6063e-23,3404.8
1.4173e-23,3405.6
3.4727e-24,3406.4
2.0458e-24,3407.2
1.4044e-23,3408
7.4699e-25,3408.8
2.0118e-24,3409.6
8.7953e-24,3410.4
4.5755e-24,3411.2
3.8781e-24,3412
7.0761e-24,3412.8
2.6404e-24,3413.6
1.23e-24,3414.4
8.8743e-24,3415.2
2.4279e-24,3416
2.4901e-24,3416.8
7.4984e-25,3417.6
1.9715e-24,3418.4
9.4071e-25,3419.2
2.8949e-24,3420
3.2663e-25,3420.8
3.6298e-24,3421.6
5.6539e-24,3422.4
3.0379e-24,3423.2
2.9451e-24,3424
8.7344e-25,3424.8
2.5033e-24,3425.6
1.2081e-24,3426.4
3.366e-24,3427.2
4.8009e-24,3428
2.1833e-25,3428.8
7.569e-25,3429.6
9.5796e-25,3430.4
1.075e-24,3431.2
3.8679e-24,3432
7.0348e-24,3432.8
4.3101e-24,3433.6
8.4969e-24,3434.4
2.6764e-24,3435.2
1.6544e-24,3436
4.7077e-24,3436.8
1.5173e-24,3437.6
1.8049e-25,3438.4
1.2139e-24,3439.2
5.7522e-24,3440
9.9944e-24,3440.8
9.4201e-24,3441.6
8.7652e-26,3442.4
2.1973e-23,3443.2
2.451e-23,3444
6.8226e-24,3444.8
3.6373e-24,3445.6
6.2389e-24,3446.4
8.0635e-24,3447.2
4.4336e-23,3448
2.6938e-23,3448.8
2.2191e-24,3449.6
1.4678e-24,3450.4
2.8931e-23,3451.2
1.5228e-23,3452
5.5007e-25,3452.8
3.0307e-25,3453.6
3.0365e-25,3454.4
8.9741e-24,3455.2
7.1183e-25,3456
1.5938e-24,3456.8
3.8437e-24,3457.6
2.8762e-24,3458.4
2.3733e-24,3459.2
7.5548e-24,3460
1.2207e-23,3460.8
7.2648e-24,3461.6
1.5155e-23,3462.4
5.5985e-24,3463.2
2.1053e-23,3464
6.0254e-23,3464.8
4.416e-24,3465.6
1.615e-23,3466.4
2.1381e-22,3467.2
6.2044e-23,3468
1.6352e-24,3468.8
6.8225e-23,3469.6
1.6823e-22,3470.4
5.1182e-24,3471.2
1.3872e-24,3472
1.6691e-22,3472.8
1.849e-23,3473.6
9.1013e-25,3474.4
2.6003e-23,3475.2
7.4844e-24,3476
1.3095e-23,3476.8
5.1863e-24,3477.6
3.6315e-24,3478.4
9.5772e-24,3479.2
7.7113e-24,3480
2.4041e-23,3480.8
6.1505e-24,3481.6
9.7447e-24,3482.4
5.2835e-24,3483.2
7.0874e-24,3484
1.3395e-24,3484.8
1.0107e-23,3485.6
5.7693e-24,3486.4
1.4231e-23,3487.2
3.6749e-24,3488
3.2878e-23,3488.8
3.9873e-24,3489.6
1.0441e-23,3490.4
1.6496e-24,3491.2
8.2231e-24,3492
8.152e-25,3492.8
1.3465e-23,3493.6
1.8673e-24,3494.4
3.6586e-23,3495.2
1.5059e-23,3496
6.3254e-23,3496.8
5.6914e-24,3497.6
3.1095e-23,3498.4
3.3043e-25,3499.2
2.0005e-24,3500
5.6276e-24,3500.8
4.732e-23,3501.6
3.5967e-24,3502.4
2.3546e-22,3503.2
1.9318e-22,3504
6.2438e-22,3504.8
1.1618e-22,3505.6
1.2603e-21,3506.4
1.6456e-22,3507.2
5.8345e-22,3508
3.4913e-22,3508.8
4.6004e-22,3509.6
1.6006e-23,3510.4
3.1697e-22,3511.2
2.0336e-22,3512
1.9891e-22,3512.8
8.3621e-24,3513.6
3.2523e-23,3514.4
2.4393e-25,3515.2
1.1335e-23,3516
2.0982e-23,3516.8
2.3476e-23,3517.6
1.2344e-24,3518.4
1.6921e-23,3519.2
4.1729e-23,3520
1.8808e-23,3520.8
1.2093e-26,3521.6
3.8424e-24,3522.4
1.4208e-25,3523.2
8.3076e-24,3524
1.3925e-23,3524.8
7.4745e-24,3525.6
5.3186e-25,3526.4
2.1662e-23,3527.2
3.1476e-23,3528
1.9193e-23,3528.8
1.5796e-22,3529.6
1.6761e-23,3530.4
4.0725e-25,3531.2
5.9479e-23,3532
2.1771e-22,3532.8
4.4706e-24,3533.6
2.1296e-24,3534.4
1.1007e-22,3535.2
8.7082e-25,3536
4.4965e-24,3536.8
2.4435e-23,3537.6
9.7489e-24,3538.4
8.2101e-24,3539.2
9.7888e-24,3540
1.091e-24,3540.8
5.1882e-24,3541.6
5.5205e-24,3542.4
1.3438e-23,3543.2
7.9555e-24,3544
6.555e-24,3544.8
7.7333e-25,3545.6
5.3828e-24,3546.4
3.3021e-24,3547.2
1.307e-23,3548
1.7448e-23,3548.8
1.9386e-23,3549.6
2.3523e-23,3550.4
3.4032e-23,3551.2
7.9496e-24,3552
3.2293e-26,3552.8
1.8237e-24,3553.6
1.501e-25,3554.4
1.1763e-24,3555.2
5.0982e-25,3556
1.6706e-24,3556.8
1.6037e-24,3557.6
1.9024e-24,3558.4
3.4196e-24,3559.2
1.4766e-24,3560
1.1034e-25,3560.8
3.9255e-24,3561.6
9.1987e-25,3562.4
2.1411e-24,3563.2
8.7718e-24,3564
3.2185e-24,3564.8
1.2256e-23,3565.6
2.8958e-23,3566.4
5.8172e-24,3567.2
5.6762e-24,3568
3.7787e-25,3568.8
1.1832e-24,3569.6
3.5001e-25,3570.4
1.1999e-24,3571.2
1.1386e-23,3572
8.7954e-24,3572.8
4.0303e-24,3573.6
1.8035e-23,3574.4
2.5491e-24,3575.2
6.512e-24,3576
3.5551e-24,3576.8
6.4816e-24,3577.6
5.0968e-24,3578.4
1.0839e-24,3579.2
2.0077e-24,3580
3.7225e-24,3580.8
6.9938e-24,3581.6
2.3561e-24,3582.4
2.0952e-24,3583.2
4.3859e-24,3584
7.886e-24,3584.8
1.4692e-24,3585.6
3.9362e-24,3586.4
1.683e-23,3587.2
2.5764e-25,3588
5.1054e-25,3588.8
1.7636e-26,3589.6
1.7822e-24,3590.4
2.8593e-24,3591.2
1.2214e-23,3592
1.329e-24,3592.8
7.145e-24,3593.6
2.1415e-23,3594.4
7.1638e-24,3595.2
6.3602e-24,3596
9.2533e-25,3596.8
1.9316e-23,3597.6
1.3499e-24,3598.4
1.4173e-23,3599.2
1.4004e-23,3600
1.2324e-24,3600.8
1.9909e-25,3601.6
4.6118e-24,3602.4
7.1822e-25,3603.2
6.8565e-24,3604
1.2232e-23,3604.8
1.8136e-23,3605.6
3.126e-24,3606.4
7.0819e-24,3607.2
2.4051e-24,3608
3.4295e-24,3608.8
3.9181e-24,3609.6
7.1485e-24,3610.4
9.1209e-24,3611.2
1.2942e-23,3612
2.7106e-24,3612.8
2.6833e-25,3613.6
3.4191e-24,3614.4
1.9035e-24,3615.2
1.882e-25,3616
4.0775e-24,3616.8
8.5906e-25,3617.6
1.6533e-26,3618.4
7.4375e-25,3619.2
4.4474e-25,3620
1.568e-24,3620.8
4.7473e-25,3621.6
2.3386e-24,3622.4
4.6717e-24,3623.2
8.1332e-25,3624
4.2695e-24,3624.8
1.1517e-24,3625.6
5.8065e-25,3626.4
2.5808e-25,3627.2
1.4129e-25,3628
1.7903e-24,3628.8
1.9763e-25,3629.6
1.8493e-24,3630.4
1.9196e-24,3631.2
5.6269e-25,3632
3.6659e-24,3632.8
1.2412e-24,3633.6
1.73e-23,3634.4
4.2077e-25,3635.2
7.7777e-24,3636
6.0163e-24,3636.8
4.0203e-24,3637.6
1.0952e-23,3638.4
3.2425e-24,3639.2
5.0121e-26,3640
6.898e-24,3640.8
4.379e-24,3641.6
1.0874e-23,3642.4
7.6532e-24,3643.2
4.2043e-24,3644
4.7605e-24,3644.8
6.769e-25,3645.6
7.939e-25,3646.4
3.4271e-25,3647.2
4.244e-24,3648
1.4285e-24,3648.8
1.3482e-24,3649.6
2.0738e-24,3650.4
2.3929e-24,3651.2
5.494e-25,3652
3.2444e-25,3652.8
4.9418e-24,3653.6
8.8244e-24,3654.4
5.8327e-24,3655.2
5.3996e-24,3656
6.43e-24,3656.8
1.263e-23,3657.6
1.4574e-24,3658.4
2.5349e-25,3659.2
8.6569e-25,3660
5.2518e-25,3660.8
1.4872e-24,3661.6
1.5673e-24,3662.4
3.7039e-24,3663.2
2.4143e-25,3664
3.2826e-24,3664.8
1.4793e-25,3665.6
1.9335e-24,3666.4
6.0605e-25,3667.2
4.2656e-24,3668
5.4219e-25,3668.8
4.0714e-24,3669.6
1.6344e-24,3670.4
3.0103e-24,3671.2
4.5726e-25,3672
1.5952e-24,3672.8
7.7942e-25,3673.6
1.8234e-24,3674.4
1.1183e-24,3675.2
3.1717e-24,3676
7.7506e-25,3676.8
6.4645e-25,3677.6
1.2577e-24,3678.4
2.3233e-24,3679.2
5.6109e-25,3680
6.9593e-26,3680.8
1.1266e-24,3681.6
5.7914e-27,3682.4
8.7705e-25,3683.2
1.5911e-24,3684
2.2075e-24,3684.8
7.5077e-25,3685.6
1.0149e-24,3686.4
1.2571e-24,3687.2
2.4963e-25,3688
7.2948e-26,3688.8
3.905e-25,3689.6
7.2972e-25,3690.4
7.0121e-25,3691.2
9.5261e-25,3692
1.1078e-25,3692.8
8.4093e-25,3693.6
6.3541e-24,3694.4
2.559e-24,3695.2
6.6091e-24,3696
1.2072e-23,3696.8
1.8268e-24,3697.6
9.1575e-24,3698.4
2.4288e-24,3699.2
5.0242e-24,3700
4.8062e-24,3700.8
5.463e-24,3701.6
1.6151e-24,3702.4
5.6074e-24,3703.2
1.2552e-23,3704
5.3842e-24,3704.8
2.9572e-24,3705.6
1.1367e-24,3706.4
8.509e-25,3707.2
4.887e-24,3708
2.8709e-24,3708.8
7.9988e-25,3709.6
8.6748e-25,3710.4
2.5085e-24,3711.2
1.2323e-23,3712
1.1761e-23,3712.8
2.3334e-23,3713.6
1.3872e-22,3714.4
2.5612e-22,3715.2
1.2589e-22,3716
1.9102e-23,3716.8
5.0403e-24,3717.6
1.743e-23,3718.4
9.3406e-24,3719.2
9.3813e-24,3720
8.087e-24,3720.8
2.4246e-24,3721.6
1.8605e-23,3722.4
1.912e-23,3723.2
1.2658e-23,3724
2.1595e-23,3724.8
1.3667e-23,3725.6
2.2058e-23,3726.4
1.5548e-24,3727.2
1.2276e-23,3728
7.995e-24,3728.8
5.5926e-24,3729.6
9.5041e-24,3730.4
8.0729e-25,3731.2
2.4819e-22,3732
1.4929e-23,3732.8
1.5778e-23,3733.6
7.0837e-24,3734.4
2.4514e-24,3735.2
1.0954e-24,3736
3.676e-24,3736.8
2.2008e-24,3737.6
1.1074e-24,3738.4
1.8037e-25,3739.2
3.4934e-25,3740
4.916e-25,3740.8
3.1958e-25,3741.6
1.0127e-24,3742.4
2.2154e-25,3743.2
1.5056e-24,3744
2.6052e-25,3744.8
2.1021e-25,3745.6
1.5283e-24,3746.4
3.0732e-26,3747.2
7.9183e-25,3748
4.9085e-25,3748.8
5.6253e-26,3749.6
1.1188e-24,3750.4
1.1498e-24,3751.2
7.8757e-25,3752
6.007e-25,3752.8
2.2166e-24,3753.6
6.5443e-24,3754.4
3.216e-24,3755.2
2.8783e-24,3756
8.5204e-24,3756.8
2.0796e-23,3757.6
1.008e-24,3758.4
4.0196e-24,3759.2
1.4301e-23,3760
3.7788e-23,3760.8
4.1042e-23,3761.6
1.0704e-22,3762.4
1.2879e-22,3763.2
1.0897e-22,3764
1.0164e-22,3764.8
4.0228e-23,3765.6
1.897e-23,3766.4
1.0176e-23,3767.2
2.1612e-24,3768
7.3112e-25,3768.8
5.1968e-24,3769.6
4.9968e-24,3770.4
1.3182e-23,3771.2
6.6407e-23,3772
2.194e-23,3772.8
3.245e-23,3773.6
1.0773e-22,3774.4
3.4615e-23,3775.2
3.9307e-24,3776
1.2045e-23,3776.8
1.1537e-23,3777.6
9.214e-24,3778.4
1.8901e-25,3779.2
1.0983e-23,3780
3.7374e-25,3780.8
1.3361e-24,3781.6
6.9651e-24,3782.4
8.1397e-24,3783.2
7.8119e-24,3784
1.0719e-23,3784.8
1.184e-23,3785.6
3.8916e-24,3786.4
6.2675e-25,3787.2
2.2736e-24,3788
1.359e-23,3788.8
4.017e-23,3789.6
2.8564e-23,3790.4
1.6775e-23,3791.2
2.0492e-23,3792
1.8268e-24,3792.8
4.0981e-24,3793.6
1.9515e-23,3794.4
2.782e-24,3795.2
7.7082e-27,3796
2.2507e-24,3796.8
5.3621e-24,3797.6
1.0417e-23,3798.4
2.7319e-24,3799.2
4.6518e-24,3800
8.4457e-25,3800.8
4.9607e-25,3801.6
1.8446e-24,3802.4
2.4507e-23,3803.2
1.2539e-23,3804
9.8759e-25,3804.8
1.385e-24,3805.6
7.9233e-24,3806.4
8.4536e-24,3807.2
1.1075e-24,3808
2.07e-24,3808.8
2.2514e-24,3809.6
2.7588e-24,3810.4
1.0766e-24,3811.2
1.4854e-24,3812
1.1804e-24,3812.8
5.3129e-26,3813.6
2.1413e-24,3814.4
2.3359e-24,3815.2
2.0834e-24,3816
4.5251e-24,3816.8
1.5961e-24,3817.6
3.5682e-24,3818.4
1.7092e-25,3819.2
6.2579e-24,3820
8.8941e-25,3820.8
3.4232e-24,3821.6
3.1079e-24,3822.4
8.422e-25,3823.2
4.6444e-25,3824
4.3794e-24,3824.8
1.6069e-24,3825.6
1.4914e-25,3826.4
1.6732e-25,3827.2
8.5303e-25,3828
3.0659e-24,3828.8
2.2095e-24,3829.6
2.5785e-26,3830.4
4.7354e-24,3831.2
4.7843e-24,3832
3.6303e-24,3832.8
3.6978e-25,3833.6
2.9688e-25,3834.4
1.469e-24,3835.2
6.6274e-25,3836
4.4382e-25,3836.8
8.7461e-25,3837.6
3.0893e-24,3838.4
7.7153e-25,3839.2
3.1187e-24,3840
2.7571e-24,3840.8
3.9075e-25,3841.6
1.9054e-24,3842.4
1.934e-24,3843.2
3.3525e-24,3844
7.9328e-25,3844.8
1.5491e-25,3845.6
5.6506e-26,3846.4
1.6562e-24,3847.2
8.0711e-25,3848
6.3736e-25,3848.8
1.746e-24,3849.6
9.0934e-25,3850.4
1.6042e-24,3851.2
7.4686e-25,3852
1.0873e-24,3852.8
1.4631e-24,3853.6
1.0313e-25,3854.4
4.7845e-25,3855.2
9.1456e-25,3856
4.6711e-24,3856.8
8.2835e-25,3857.6
1.3749e-24,3858.4
4.6884e-25,3859.2
8.2457e-25,3860
5.7478e-24,3860.8
6.2077e-25,3861.6
3.0938e-25,3862.4
2.3201e-25,3863.2
1.2493e-27,3864
2.7752e-25,3864.8
1.2002e-24,3865.6
4.4018e-25,3866.4
1.4733e-24,3867.2
7.3553e-25,3868
9.9827e-25,3868.8
9.8316e-25,3869.6
1.7734e-24,3870.4
4.811e-24,3871.2
4.8351e-25,3872
5.6559e-24,3872.8
3.1914e-25,3873.6
3.9577e-25,3874.4
3.2072e-24,3875.2
2.7577e-24,3876
1.3122e-24,3876.8
6.2645e-24,3877.6
3.3623e-24,3878.4
3.9232e-24,3879.2
7.4952e-24,3880
7.2614e-25,3880.8
4.8602e-24,3881.6
6.6803e-24,3882.4
5.255e-25,3883.2
3.2676e-24,3884
1.1149e-24,3884.8
2.1675e-24,3885.6
7.1498e-25,3886.4
8.6312e-24,3887.2
7.2563e-24,3888
2.8171e-24,3888.8
3.337e-24,3889.6
1.048e-25,3890.4
6.7976e-24,3891.2
4.3277e-24,3892
5.2359e-24,3892.8
8.0766e-24,3893.6
1.4201e-23,3894.4
1.752e-24,3895.2
4.487e-23,3896
1.7356e-22,3896.8
1.0639e-22,3897.6
1.1766e-23,3898.4
2.3767e-24,3899.2
8.9439e-24,3900
1.0543e-25,3900.8
2.0019e-25,3901.6
1.0988e-23,3902.4
1.9505e-24,3903.2
1.7363e-24,3904
2.1773e-24,3904.8
4.2687e-24,3905.6
9.593e-25,3906.4
1.4756e-25,3907.2
2.3682e-24,3908
1.5466e-24,3908.8
1.3822e-25,3909.6
1.2925e-24,3910.4
1.7969e-24,3911.2
7.9489e-24,3912
4.0578e-24,3912.8
8.0954e-25,3913.6
4.0796e-25,3914.4
1.3147e-24,3915.2
8.2298e-26,3916
4.0611e-24,3916.8
3.2798e-24,3917.6
1.2949e-23,3918.4
2.0925e-24,3919.2
2.322e-24,3920
3.3202e-24,3920.8
4.9173e-24,3921.6
1.7628e-24,3922.4
2.0008e-24,3923.2
1.0237e-23,3924
4.542e-24,3924.8
4.3172e-24,3925.6
3.4422e-24,3926.4
2.3011e-24,3927.2
2.4071e-24,3928
6.5448e-24,3928.8
1.5342e-24,3929.6
4.521e-24,3930.4
4.1911e-24,3931.2
2.2959e-24,3932
3.0504e-24,3932.8
1.5046e-23,3933.6
1.1118e-23,3934.4
1.3723e-23,3935.2
1.4014e-23,3936
2.9135e-22,3936.8
6.3738e-22,3937.6
3.2632e-23,3938.4
1.9812e-22,3939.2
1.8185e-22,3940
2.9102e-23,3940.8
1.1592e-23,3941.6
3.3171e-23,3942.4
3.0599e-23,3943.2
4.5627e-24,3944
5.5866e-24,3944.8
2.1731e-23,3945.6
4.7838e-24,3946.4
1.516e-23,3947.2
8.9753e-24,3948
8.2775e-25,3948.8
1.0539e-23,3949.6
4.0887e-26,3950.4
1.6598e-24,3951.2
6.804e-25,3952
1.9463e-23,3952.8
1.2342e-23,3953.6
3.8232e-23,3954.4
5.8296e-23,3955.2
3.5728e-23,3956
4.1813e-23,3956.8
4.3359e-23,3957.6
1.6399e-23,3958.4
4.6706e-24,3959.2
2.6179e-24,3960
1.5412e-24,3960.8
3.4871e-24,3961.6
3.7908e-24,3962.4
6.1146e-24,3963.2
5.1519e-25,3964
1.3489e-23,3964.8
9.0475e-25,3965.6
2.5719e-24,3966.4
2.4702e-24,3967.2
2.8289e-24,3968
3.5422e-24,3968.8
7.914e-24,3969.6
1.2468e-23,3970.4
6.3922e-24,3971.2
5.8255e-24,3972
9.7674e-24,3972.8
3.8197e-24,3973.6
2.288e-24,3974.4
1.2006e-24,3975.2
7.2107e-24,3976
1.7427e-23,3976.8
5.2822e-24,3977.6
2.4818e-23,3978.4
6.7377e-23,3979.2
5.3722e-23,3980
2.9503e-23,3980.8
8.6784e-23,3981.6
5.413e-23,3982.4
1.4987e-23,3983.2
8.8423e-24,3984
1.2706e-23,3984.8
4.0049e-24,3985.6
7.6798e-24,3986.4
3.9858e-25,3987.2
1.7673e-24,3988
8.5377e-25,3988.8
3.2956e-24,3989.6
2.873e-24,3990.4
7.6012e-25,3991.2
8.2936e-25,3992
5.9289e-24,3992.8
1.1054e-24,3993.6
2.0041e-24,3994.4
4.295e-24,3995.2
3.0168e-24,3996
3.5053e-25,3996.8
2.8279e-24,3997.6
1.1568e-23,3998.4
8.2743e-24,3999.2
3.7601e-25,4000
